 0  0 76.0000 4613.9840 12242.7971 0.4959 1.4211 0.1306 0.0861
 1  1 76.0000 4613.9840 12242.7971 0.4959 1.4211 0.1306 0.0861
 1  2 76.0000 4613.9840 12242.7971 0.4959 1.4211 0.1306 0.0861
 1  3 76.0000 4613.9840 12242.7971 0.4959 1.4211 0.1306 0.0861
 1  4 76.0000 4613.9840 12188.3134 0.4981 1.5789 0.1306 0.0861
 1  5 76.0000 4613.9840 12242.7971 0.4959 1.4211 0.1306 0.0861
 1  6 82.4000 5026.3037 13623.8473 0.4490 1.4563 0.1423 0.1107
 1  7 76.0000 4613.9840 12305.8922 0.4934 1.4211 0.1306 0.0861
 1  8 76.0000 4613.9840 12242.7971 0.4959 1.4211 0.1306 0.0861
 1  9 76.0000 4613.9840 12242.7971 0.4959 1.5789 0.1306 0.0861
 1 10 80.8000 4925.1936 13261.1412 0.4605 1.1881 0.1306 0.0861
 1 11 74.0000 4523.6730 11965.9580 0.5108 1.6216 0.1254 0.0782
 1 12 74.8000 4543.6339 11966.3285 0.5078 1.4439 0.1306 0.0847
 1 13 76.0000 4613.9840 12242.7971 0.4959 1.4211 0.1306 0.0861
 1 14 80.4000 4918.8151 13110.8606 0.4672 1.4925 0.1307 0.0868
 1 15 80.0000 4846.0353 12857.7227 0.4715 1.3500 0.1310 0.0867
 1 16 76.0000 4612.6331 12197.3381 0.4977 1.5789 0.1319 0.0820
 1 17 79.2000 4808.0992 12864.2469 0.4723 1.3636 0.1307 0.0868
 1 18 84.0000 5134.3564 13782.1852 0.4440 1.4286 0.1362 0.0988
 1 19 79.6000 4810.2273 12984.8009 0.4660 1.3568 0.1306 0.0836
 1 20 79.2000 4811.2202 12712.1369 0.4781 1.5152 0.1307 0.0857
 1 21 85.2000 5215.6828 14398.3179 0.4255 1.4085 0.1386 0.1091
 1 22 81.2000 4851.3224 13077.7700 0.4575 1.3300 0.1306 0.0861
 1 23 81.6000 5019.3624 13561.7229 0.4542 1.4706 0.1308 0.0866
 1 24 80.0000 4813.6330 12813.1124 0.4700 1.5000 0.1336 0.0934
 1 25 88.0000 5378.4504 14645.1253 0.4172 1.3636 0.1459 0.1096
 1 26 88.0000 5354.5830 14254.1096 0.4268 1.3636 0.1361 0.0956
 1 27 88.4000 5508.6793 15117.0342 0.4133 1.3575 0.1453 0.1153
 1 28 77.6000 4714.9891 12386.9759 0.4905 1.2371 0.1310 0.0862
 1 29 82.4000 5127.1936 13641.9596 0.4585 1.4563 0.1374 0.0922
 1 30 78.8000 4857.8370 13139.9378 0.4702 1.3706 0.1317 0.0901
 1 31 80.8000 4954.4842 13206.9665 0.4655 1.4851 0.1453 0.1041
 1 32 80.0000 4884.4113 12979.9776 0.4711 1.3500 0.1317 0.0866
 1 33 86.4000 5403.0615 14764.3680 0.4243 1.3889 0.1373 0.1035
 1 34 78.4000 4769.6008 12756.3728 0.4789 1.5306 0.1283 0.0745
 1 35 76.4000 4752.8354 12776.8419 0.4888 1.4136 0.1307 0.0833
 1 36 84.4000 5168.9868 13742.3198 0.4467 1.4218 0.1405 0.1017
 1 37 73.6000 4498.3793 12011.1636 0.5095 1.4674 0.1311 0.0953
 1 38 80.0000 4928.3823 12745.0757 0.4840 1.2000 0.1422 0.1026
 1 39 84.4000 5097.9879 13405.7636 0.4513 1.4218 0.1353 0.0844
 1 40 76.4000 4628.7364 12366.5692 0.4907 1.4136 0.1327 0.0969
 1 41 86.0000 5217.9544 13619.9192 0.4463 1.2558 0.1308 0.0803
 1 42 82.0000 4984.8967 12772.2274 0.4761 1.4634 0.1423 0.0976
 1 43 80.4000 4920.3033 12994.2006 0.4710 1.3433 0.1375 0.0956
 1 44 87.6000 5336.8806 13938.7651 0.4371 1.0959 0.1343 0.0913
 1 45 82.4000 4861.9791 12884.0451 0.4582 1.4563 0.1367 0.0898
 1 46 81.2000 4914.5631 12974.6304 0.4670 1.4778 0.1398 0.0990
 1 47 77.2000 4779.9105 12445.6311 0.4979 1.3990 0.1338 0.0845
 1 48 80.0000 4938.8325 12880.0521 0.4814 1.5000 0.1388 0.0913
 1 49 80.0000 4812.7235 12559.7387 0.4797 1.3500 0.1300 0.0803
 1 50 71.6000 4333.4780 11419.8664 0.5299 1.5084 0.1315 0.0862
 1 51 79.2000 4896.7196 13070.2756 0.4734 1.5152 0.1268 0.0793
 1 52 80.8000 4995.3985 13074.9395 0.4731 1.4851 0.1281 0.0741
 1 53 80.8000 4924.3988 12939.0926 0.4720 1.3366 0.1344 0.0870
 1 54 81.2000 5002.0243 13269.0475 0.4641 1.4778 0.1395 0.0953
 1 55 78.4000 4781.2265 12595.3872 0.4854 1.5306 0.1256 0.0715
 1 56 83.6000 5163.3263 13717.5345 0.4521 1.0048 0.1432 0.1049
 1 57 82.4000 5052.4024 13558.8398 0.4550 1.4563 0.1292 0.0805
 1 58 76.4000 4604.4528 12078.7267 0.4992 1.2565 0.1351 0.0946
 1 59 78.8000 4713.4335 12656.4456 0.4722 1.5228 0.1398 0.0941
 1 60 82.4000 4901.4219 13133.4692 0.4537 1.0194 0.1424 0.1066
 1 61 81.2000 4869.5727 13265.3961 0.4526 1.1823 0.1223 0.0715
 1 62 79.2000 4755.8858 12252.5025 0.4907 1.5152 0.1302 0.0796
 1 63 84.0000 5110.4363 13771.5084 0.4417 1.4286 0.1353 0.0961
 1 64 82.8000 5116.3497 13711.8869 0.4503 1.3043 0.1436 0.1052
 1 65 82.4000 5025.6048 13251.0551 0.4619 1.4563 0.1341 0.0884
 1 66 84.4000 5247.5016 13541.7566 0.4606 1.5640 0.1339 0.0873
 1 67 78.8000 4656.4029 12263.6124 0.4830 1.3706 0.1340 0.0959
 1 68 80.0000 4850.1498 12475.4808 0.4885 1.5000 0.1329 0.0887
 1 69 80.8000 4817.8824 12625.5057 0.4720 1.3366 0.1324 0.0859
 1 70 78.4000 4709.5922 12308.0161 0.4888 1.5306 0.1453 0.1086
 1 71 76.4000 4651.8192 12465.5983 0.4908 1.2565 0.1324 0.0838
 1 72 84.8000 5191.2592 14164.4015 0.4328 1.4151 0.1403 0.1010
 1 73 86.8000 5260.9328 13847.4658 0.4379 1.3825 0.1425 0.1012
 1 74 84.4000 5090.7880 13229.6382 0.4560 1.4218 0.1440 0.1026
 1 75 84.0000 5084.3486 13374.2931 0.4521 1.4286 0.1401 0.0944
 1 76 88.0000 5465.3378 14527.1919 0.4282 1.3636 0.1404 0.1015
 1 77 82.8000 5163.6542 13947.1491 0.4486 1.4493 0.1351 0.0944
 1 78 81.6000 4952.1068 13273.0790 0.4583 1.4706 0.1468 0.1147
 1 79 83.6000 4976.9437 13037.6221 0.4573 1.4354 0.1375 0.0999
 1 80 86.8000 5434.7844 14659.3391 0.4280 1.3825 0.1364 0.0924
 1 81 78.4000 4671.5581 12209.0331 0.4915 1.2245 0.1374 0.0921
 1 82 81.6000 4912.7697 12995.7293 0.4637 1.4706 0.1455 0.1009
 1 83 88.0000 5255.1776 13416.3703 0.4453 1.3636 0.1429 0.0967
 1 84 82.4000 4972.5185 12916.4539 0.4683 1.4563 0.1337 0.0837
 1 85 87.2000 5244.3955 13697.6059 0.4399 1.1009 0.1328 0.0873
 1 86 78.8000 4838.4652 12535.2098 0.4913 1.5228 0.1353 0.0936
 1 87 84.8000 5212.7441 13651.9197 0.4503 1.2736 0.1374 0.0920
 1 88 79.6000 4877.5356 12807.6177 0.4817 1.5075 0.1462 0.1027
 1 89 80.8000 5001.9672 13147.7507 0.4710 1.3366 0.1254 0.0794
 1 90 81.2000 4938.1978 13055.8022 0.4664 1.3300 0.1424 0.1001
 1 91 83.2000 5142.0777 13320.1461 0.4641 1.4423 0.1405 0.1006
 1 92 86.0000 5213.2379 13642.3837 0.4446 1.2558 0.1423 0.0975
 1 93 83.2000 5169.3806 13716.4681 0.4536 1.2981 0.1383 0.1038
 1 94 80.0000 4797.2858 12479.5519 0.4831 1.5000 0.1397 0.0950
 1 95 82.8000 5067.4345 13429.9106 0.4563 1.3043 0.1388 0.0847
 1 96 82.0000 5109.9983 13483.2357 0.4623 1.1707 0.1406 0.0953
 1 97 72.8000 4427.4659 11292.0187 0.5429 1.3187 0.1364 0.0812
 1 98 82.0000 4964.9843 12819.2075 0.4728 1.3171 0.1380 0.0884
 1 99 76.8000 4649.0069 12253.4200 0.4957 1.2500 0.1395 0.0995
 1 100 74.8000 4506.3581 11730.0163 0.5160 1.4439 0.1372 0.0948
 1 101 77.6000 4681.8172 11905.6669 0.5074 1.2371 0.1329 0.0773
 1 102 80.0000 4911.2206 12795.6781 0.4803 1.2000 0.1362 0.0870
 1 103 78.0000 4696.6966 12280.6323 0.4904 1.2308 0.1330 0.0807
 1 104 77.6000 4695.4974 11753.1164 0.5157 1.3918 0.1333 0.0734
 1 105 73.2000 4297.9404 10830.2311 0.5438 1.4754 0.1331 0.0768
 1 106 77.2000 4716.3045 12299.6243 0.4983 1.2435 0.1350 0.0779
 1 107 76.0000 4619.2726 12038.8894 0.5054 1.4211 0.1323 0.0838
 1 108 76.0000 4570.2874 11775.3801 0.5112 1.2632 0.1305 0.0736
 1 109 76.0000 4543.3921 11665.3897 0.5129 1.2632 0.1330 0.0815
 1 110 74.0000 4566.1076 11883.6923 0.5194 1.2973 0.1324 0.0835
 1 111 75.2000 4470.2930 11538.9468 0.5163 1.2766 0.1305 0.0692
 1 112 73.6000 4486.4653 11417.4678 0.5345 1.3043 0.1340 0.0832
 1 113 74.8000 4515.4803 11373.0680 0.5315 1.1230 0.1323 0.0798
 1 114 75.2000 4420.6694 11172.5285 0.5268 1.2766 0.1316 0.0724
 1 115 70.0000 4011.2178 10466.6619 0.5493 1.0286 0.1121 0.0474
 1 116 72.4000 4300.5138 10879.3650 0.5463 1.3260 0.1296 0.0714
 1 117 70.4000 4065.9537 10500.0964 0.5506 1.3636 0.1339 0.0740
 1 118 69.2000 4022.0270 10281.6034 0.5654 1.2139 0.1248 0.0689
 1 119 71.6000 4219.7713 10653.8237 0.5534 1.3408 0.1300 0.0727
 1 120 69.6000 4051.0121 10598.3689 0.5498 1.2069 0.1299 0.0806
 1 121 68.4000 4168.9899 11027.2336 0.5535 1.0526 0.1292 0.0769
 1 122 67.2000 4089.3102 10554.6037 0.5767 1.2500 0.1282 0.0739
 1 123 68.8000 4141.8151 10566.3983 0.5700 1.0465 0.1291 0.0727
 1 124 71.6000 4155.1281 10574.0476 0.5489 1.3408 0.1296 0.0749
 1 125 65.6000 3926.5433 9930.0552 0.6037 1.0976 0.1269 0.0758
 1 126 70.0000 4135.9927 10229.8042 0.5785 1.2000 0.1303 0.0687
 1 127 65.2000 3877.4322 9617.7439 0.6187 1.2883 0.1255 0.0660
 1 128 66.8000 3941.2924 9957.2000 0.5946 1.2575 0.1273 0.0643
 1 129 63.6000 3854.3848 10147.0017 0.5978 1.1321 0.1249 0.0694
 1 130 64.8000 3903.2973 9865.7206 0.6114 1.1111 0.1241 0.0616
 1 131 68.0000 3856.1809 9753.5696 0.5825 1.2353 0.1259 0.0590
 1 132 63.6000 3839.4520 9692.9902 0.6231 0.9434 0.1254 0.0650
 1 133 59.6000 3640.8525 9345.0845 0.6537 1.2081 0.1247 0.0616
 1 134 61.6000 3723.3278 9315.5058 0.6492 1.1688 0.1264 0.0632
 1 135 63.6000 3711.3594 9528.6884 0.6145 1.3208 0.1266 0.0724
 1 136 62.8000 3726.0124 9327.0608 0.6373 1.3376 0.1289 0.0730
 1 137 62.4000 3785.2221 9761.1928 0.6218 0.9615 0.1249 0.0635
 1 138 62.0000 3667.8814 9742.7482 0.6088 1.1613 0.1189 0.0560
 1 139 58.4000 3509.1354 8725.5330 0.6891 1.2329 0.1235 0.0588
 1 140 60.8000 3602.5389 9188.9606 0.6470 1.3816 0.1231 0.0596
 1 141 59.2000 3541.7596 8831.7692 0.6790 1.2162 0.1251 0.0626
 1 142 58.4000 3412.7961 8661.7378 0.6762 1.2329 0.1181 0.0503
 1 143 59.6000 3566.3166 8837.9815 0.6780 1.2081 0.1248 0.0668
 1 144 58.8000 3486.2308 8823.1633 0.6726 1.0204 0.1225 0.0569
 1 145 57.2000 3253.6902 8014.6780 0.7140 1.2587 0.1187 0.0480
 1 146 58.0000 3456.5736 8737.3327 0.6832 1.0345 0.1238 0.0593
 1 147 58.8000 3337.9868 8539.7588 0.6656 1.2245 0.1210 0.0581
 1 148 56.0000 3286.2582 8123.5248 0.7221 1.2857 0.1206 0.0560
 1 149 58.4000 3325.9407 8387.2626 0.6797 1.2329 0.1222 0.0617
 1 150 58.8000 3384.0085 8326.0350 0.6927 1.0204 0.1242 0.0609
 1 151 58.4000 3295.7164 8390.5549 0.6761 1.0274 0.1181 0.0518
 1 152 56.8000 3306.2263 8233.4591 0.7097 1.0563 0.1211 0.0652
 1 153 57.2000 3165.3147 8078.3412 0.6881 1.0490 0.1203 0.0517
 1 154 56.4000 3225.5288 8171.1422 0.7003 1.2766 0.1212 0.0567
 1 155 56.4000 3239.8061 8259.8538 0.6966 1.0638 0.1193 0.0523
 1 156 56.8000 3224.5676 8206.4151 0.6925 1.0563 0.1229 0.0590
 1 157 56.4000 3194.3406 7765.3823 0.7296 1.2766 0.1229 0.0532
 1 158 53.2000 3039.5992 7472.0078 0.7664 1.1278 0.1179 0.0496
 1 159 55.2000 3027.1787 7665.0525 0.7154 1.0870 0.1174 0.0523
 1 160 53.2000 2981.6150 7375.6271 0.7603 0.9023 0.1178 0.0486
 1 161 54.0000 2972.8041 7403.7455 0.7446 1.1111 0.1181 0.0543
 1 162 52.4000 2965.4379 7270.2939 0.7808 1.3740 0.1169 0.0426
 1 163 54.0000 2963.6834 7232.5413 0.7600 1.1111 0.1183 0.0460
 1 164 53.6000 3015.9887 7500.0305 0.7498 1.1194 0.1179 0.0521
 1 165 50.8000 2872.9334 7089.1767 0.7981 1.1811 0.1172 0.0500
 1 166 53.2000 3023.0293 7575.5830 0.7504 1.1278 0.1172 0.0531
 1 167 50.4000 2842.9672 6991.5968 0.8077 1.1905 0.1172 0.0474
 1 168 50.4000 2853.5024 6880.6342 0.8237 1.1905 0.1168 0.0475
 1 169 46.8000 2732.7921 6510.9287 0.8982 1.2821 0.1171 0.0418
 1 170 48.8000 2809.2281 6745.4997 0.8552 0.7377 0.1183 0.0494
 1 171 51.6000 2933.5691 7366.7607 0.7735 1.1628 0.1177 0.0534
 1 172 48.8000 2789.6260 6615.7002 0.8656 1.2295 0.1175 0.0427
 1 173 48.0000 2778.5187 6705.6653 0.8635 1.2500 0.1173 0.0452
 1 174 49.2000 2803.0147 6762.1334 0.8437 1.2195 0.1172 0.0490
 1 175 47.6000 2705.1611 6667.6273 0.8530 1.2605 0.1144 0.0468
 1 176 47.6000 2748.0729 6785.3084 0.8515 1.2605 0.1182 0.0476
 1 177 47.6000 2769.5845 6631.2587 0.8796 1.2605 0.1161 0.0452
 1 178 45.6000 2670.6075 6340.4172 0.9235 1.3158 0.1143 0.0405
 1 179 44.8000 2638.9110 6593.2952 0.8942 1.3393 0.1152 0.0471
 1 180 43.6000 2621.1274 6525.0330 0.9235 1.3761 0.1147 0.0410
 1 181 45.2000 2663.0015 6486.9429 0.9097 1.3274 0.1152 0.0448
 1 182 44.8000 2662.1635 6564.0328 0.9079 1.3393 0.1167 0.0485
 1 183 44.8000 2663.9889 6566.0614 0.9086 1.3393 0.1146 0.0417
 1 184 44.0000 2634.7406 6529.4655 0.9177 1.3636 0.1143 0.0412
 1 185 42.8000 2599.7099 6251.9454 0.9727 1.4019 0.1140 0.0446
 1 186 45.6000 2661.6271 6401.7724 0.9133 1.3158 0.1153 0.0429
 1 187 44.4000 2647.8391 6490.9624 0.9191 1.3514 0.1157 0.0446
 1 188 43.6000 2564.5722 6401.5475 0.9201 1.3761 0.1148 0.0463
 1 189 42.0000 2532.6023 6182.7355 0.9771 1.4286 0.1143 0.0468
 1 190 43.2000 2606.0317 6581.2667 0.9172 1.3889 0.1151 0.0464
 1 191 42.0000 2570.2271 6333.5955 0.9663 0.5714 0.1135 0.0417
 1 192 41.6000 2548.0772 6333.0270 0.9677 1.4423 0.1153 0.0442
 1 193 42.0000 2557.6685 6308.6115 0.9669 1.4286 0.1154 0.0417
 1 194 40.8000 2536.0917 6414.2221 0.9706 1.4706 0.1134 0.0419
 1 195 40.4000 2487.2369 6096.7454 1.0104 0.8911 0.1148 0.0424
 1 196 41.6000 2515.4297 6030.1892 1.0036 1.4423 0.1146 0.0428
 1 197 40.4000 2522.4556 6173.4418 1.0122 1.4851 0.1147 0.0397
 1 198 40.4000 2486.9840 6150.6652 1.0013 1.4851 0.1140 0.0411
 1 199 39.6000 2461.4803 6150.2995 1.0117 0.9091 0.1142 0.0408
 1 200 39.6000 2407.9991 5911.0538 1.0289 1.5152 0.1117 0.0408
 1 201 40.4000 2486.9587 6153.0968 1.0006 1.1881 0.1137 0.0414
 1 202 39.6000 2347.2028 5976.4718 0.9925 1.5152 0.1113 0.0413
 1 203 40.0000 2415.0389 5943.7054 1.0162 0.9000 0.1125 0.0395
 1 204 39.2000 2396.7381 6111.0297 1.0005 1.5306 0.1107 0.0417
 1 205 38.4000 2402.4934 6034.6305 1.0376 1.2500 0.1119 0.0422
 1 206 39.6000 2353.6966 5848.6706 1.0169 1.5152 0.1116 0.0394
 1 207 39.2000 2322.4203 5745.3030 1.0313 1.2245 0.1112 0.0397
 1 208 38.4000 2318.8499 5799.6934 1.0420 1.5625 0.1110 0.0403
 1 209 37.6000 2290.7785 5727.4109 1.0642 0.9574 0.1109 0.0403
 1 210 38.4000 2304.7627 5625.2292 1.0679 1.5625 0.1107 0.0370
 1 211 37.6000 2297.8820 5819.3842 1.0503 1.2766 0.1106 0.0387
 1 212 36.4000 2259.7317 5509.4971 1.1276 0.9890 0.1099 0.0397
 1 213 37.2000 2256.3553 5608.4951 1.0822 1.2903 0.1109 0.0377
 1 214 37.2000 2256.3553 5611.5517 1.0819 1.6129 0.1109 0.0377
 1 215 36.4000 2252.4320 5614.2918 1.1025 0.9890 0.1103 0.0377
 1 216 36.4000 2252.4320 5595.5949 1.1061 0.9890 0.1100 0.0393
 2  1 76.0000 4613.9840 12242.7971 0.4959 1.4211 0.1306 0.0861
 2  2 76.0000 4613.9840 12242.7971 0.4959 1.5789 0.1306 0.0861
 2  3 76.0000 4613.9840 12242.7971 0.4959 1.4211 0.1306 0.0861
 2  4 78.8000 4788.2707 12830.1528 0.4743 1.3706 0.1306 0.0861
 2  5 79.2000 4808.0992 12816.2562 0.4740 1.3636 0.1306 0.0861
 2  6 77.6000 4700.9980 12525.2771 0.4838 1.3918 0.1306 0.0861
 2  7 80.0000 4839.4862 12963.4137 0.4673 1.3500 0.1306 0.0861
 2  8 76.0000 4613.9840 12242.7971 0.4959 1.5789 0.1306 0.0861
 2  9 80.0000 4812.5355 12988.4314 0.4639 1.2000 0.1306 0.0857
 2 10 78.0000 4737.7490 12693.3019 0.4791 1.3846 0.1307 0.0896
 2 11 81.6000 4913.6456 13074.4685 0.4607 1.1765 0.1306 0.0851
 2 12 79.2000 4820.1439 12840.0969 0.4750 1.5152 0.1306 0.0835
 2 13 80.0000 4883.2971 13074.9174 0.4673 1.2000 0.1340 0.0960
 2 14 84.4000 5138.7534 13837.6697 0.4404 1.4218 0.1422 0.1078
 2 15 82.8000 4940.0777 13067.6938 0.4567 1.3043 0.1310 0.0849
 2 16 78.8000 4829.5919 13033.7202 0.4712 1.5228 0.1423 0.1072
 2 17 86.8000 5454.0160 14835.3187 0.4258 1.2442 0.1319 0.0821
 2 18 87.6000 5310.5001 14291.1051 0.4262 1.3699 0.1411 0.1090
 2 19 85.2000 5210.9148 14280.9828 0.4302 1.4085 0.1415 0.1051
 2 20 87.2000 5224.6500 13940.9566 0.4300 1.3761 0.1361 0.0989
 2 21 82.0000 4906.4013 12931.6152 0.4622 1.4634 0.1306 0.0878
 2 22 82.4000 5088.7008 13868.1068 0.4482 1.3107 0.1406 0.1100
 2 23 84.8000 5177.1691 13963.9195 0.4370 1.4151 0.1337 0.0943
 2 24 80.8000 4919.7602 13213.6064 0.4613 1.4851 0.1310 0.0865
 2 25 77.2000 4635.6778 12234.5089 0.4911 1.2435 0.1380 0.0965
 2 26 82.4000 4967.0495 13396.9868 0.4506 1.4563 0.1416 0.1086
 2 27 84.8000 5107.5941 13663.2377 0.4409 1.4151 0.1420 0.1035
 2 28 77.6000 4806.1260 12624.8828 0.4908 1.5464 0.1429 0.1018
 2 29 82.0000 5015.8199 13493.7780 0.4551 1.4634 0.1341 0.0898
 2 30 82.4000 5058.0263 13562.0871 0.4531 1.3107 0.1434 0.1072
 2 31 84.0000 5182.0856 14181.4925 0.4356 1.4286 0.1398 0.1037
 2 32 86.8000 5396.1586 14468.7806 0.4301 1.3825 0.1359 0.0980
 2 33 80.4000 4839.0448 12916.2421 0.4685 1.4925 0.1246 0.0715
 2 34 82.0000 4933.5624 13105.4099 0.4594 1.1707 0.1397 0.0992
 2 35 72.8000 4470.6614 11529.8272 0.5326 1.6484 0.1223 0.0679
 2 36 79.2000 4918.0416 12859.1970 0.4830 1.3636 0.1279 0.0790
 2 37 80.4000 4933.2305 12831.2901 0.4807 1.3433 0.1265 0.0754
 2 38 79.6000 4779.9309 12545.9976 0.4801 1.5075 0.1283 0.0742
 2 39 80.0000 4996.2247 13450.5256 0.4656 1.3500 0.1280 0.0758
 2 40 78.4000 4768.3638 12382.4046 0.4913 1.5306 0.1282 0.0768
 2 41 77.6000 4722.3766 12410.6135 0.4903 1.5464 0.1323 0.0896
 2 42 80.0000 4864.0252 12905.0230 0.4715 1.3500 0.1427 0.0999
 2 43 76.4000 4584.9392 12337.7909 0.4862 1.5707 0.1379 0.1007
 2 44 87.6000 5384.5034 14309.7473 0.4295 1.3699 0.1443 0.1073
 2 45 82.0000 5013.4500 13319.2345 0.4600 1.4634 0.1320 0.0815
 2 46 75.2000 4545.2328 11838.8089 0.5113 1.5957 0.1303 0.0836
 2 47 76.8000 4546.1300 11792.5903 0.5039 1.4063 0.1316 0.0916
 2 48 86.0000 5447.6112 14827.3171 0.4272 1.3953 0.1496 0.1152
 2 49 82.4000 5081.5898 13443.6887 0.4579 1.4563 0.1316 0.0902
 2 50 77.2000 4782.8811 12363.1518 0.5019 1.3990 0.1474 0.1081
 2 51 76.0000 4541.2669 11865.2173 0.5039 1.1053 0.1290 0.0804
 2 52 83.2000 5212.0994 13654.0088 0.4586 1.4423 0.1332 0.0908
 2 53 82.8000 4994.7680 13195.8056 0.4557 1.4493 0.1370 0.0945
 2 54 85.2000 5253.1517 13806.0510 0.4470 1.4085 0.1353 0.0889
 2 55 80.0000 4904.1358 13242.3695 0.4636 1.2000 0.1307 0.0864
 2 56 90.8000 5530.7939 14972.3671 0.4079 1.3216 0.1488 0.1173
 2 57 82.0000 5000.2760 13067.0378 0.4669 1.4634 0.1298 0.0839
 2 58 84.0000 5212.3751 13779.7042 0.4518 1.4286 0.1336 0.0813
 2 59 86.4000 5259.8443 13966.5188 0.4358 1.3889 0.1356 0.0974
 2 60 80.4000 4892.7340 12634.3353 0.4839 1.4925 0.1215 0.0738
 2 61 84.8000 5178.0473 13541.0759 0.4522 1.4151 0.1382 0.0903
 2 62 78.0000 4717.1218 12291.4209 0.4926 1.3846 0.1300 0.0807
 2 63 81.2000 4948.6035 13002.8623 0.4727 1.4778 0.1155 0.0525
 2 64 91.2000 5696.5386 15062.1117 0.4150 1.3158 0.1388 0.0937
 2 65 88.0000 5514.6684 14499.0908 0.4314 1.3636 0.1489 0.1096
 2 66 84.4000 5151.6969 13435.5606 0.4541 1.4218 0.1434 0.1043
 2 67 88.0000 5556.6327 14819.8963 0.4260 1.3636 0.1386 0.1017
 2 68 87.6000 5396.5439 14449.9581 0.4264 1.2329 0.1415 0.1020
 2 69 76.4000 4753.7972 12036.9180 0.5160 1.5707 0.1522 0.1101
 2 70 88.4000 5376.2073 13802.0790 0.4408 1.3575 0.1407 0.0917
 2 71 83.6000 5142.0822 13669.5829 0.4494 1.0048 0.1224 0.0729
 2 72 79.2000 4630.1224 12169.4722 0.4840 1.5152 0.1424 0.1092
 2 73 84.0000 5273.9568 13972.8947 0.4502 1.2857 0.1500 0.1093
 2 74 89.6000 5581.6257 14399.8343 0.4325 1.3393 0.1475 0.1023
 2 75 90.8000 5578.3833 14384.5692 0.4271 1.3216 0.1470 0.1055
 2 76 90.8000 5621.7255 14653.8590 0.4228 1.1894 0.1426 0.0989
 2 77 87.2000 5261.1023 13654.7526 0.4428 1.2385 0.1385 0.0881
 2 78 89.2000 5476.0830 13764.4557 0.4469 1.3453 0.1489 0.1090
 2 79 77.2000 4917.4427 12937.9089 0.4929 1.3990 0.1448 0.1036
 2 80 91.2000 5618.2114 14672.6135 0.4201 1.3158 0.1421 0.1036
 2 81 84.8000 5152.5879 13836.7738 0.4395 1.2736 0.1348 0.0859
 2 82 89.2000 5384.8052 14331.9076 0.4218 1.0762 0.1440 0.1053
 2 83 87.2000 5315.1236 13780.6997 0.4430 1.2385 0.1386 0.0830
 2 84 86.8000 5323.2736 13574.7139 0.4520 1.3825 0.1449 0.0930
 2 85 84.0000 5063.2259 12756.0251 0.4727 1.2857 0.1441 0.0957
 2 86 84.8000 5210.3732 13391.7824 0.4595 1.2736 0.1450 0.1029
 2 87 86.4000 5137.2988 13434.8748 0.4429 1.2500 0.1436 0.0932
 2 88 84.8000 5115.8786 12961.2803 0.4658 1.2736 0.1399 0.0925
 2 89 84.0000 4968.7509 12765.6335 0.4637 1.1429 0.1389 0.0872
 2 90 83.2000 4920.8597 12592.5277 0.4701 1.1538 0.1400 0.0881
 2 91 82.0000 4863.3754 12498.7330 0.4748 1.1707 0.1398 0.0869
 2 92 83.6000 4917.4688 12270.7201 0.4797 1.1483 0.1419 0.0827
 2 93 80.4000 4835.5774 12177.1109 0.4939 1.0448 0.1385 0.0819
 2 94 78.8000 4677.3017 12042.4404 0.4938 1.3706 0.1368 0.0859
 2 95 81.6000 4747.1970 12038.1998 0.4837 1.1765 0.1346 0.0745
 2 96 82.4000 4772.6700 12458.6860 0.4652 1.0194 0.1371 0.0814
 2 97 79.6000 4660.3308 11926.4192 0.4915 1.3568 0.1385 0.0903
 2 98 80.4000 4757.0103 12009.5556 0.4931 1.1940 0.1393 0.0861
 2 99 79.2000 4721.4913 11919.8683 0.5002 1.2121 0.1360 0.0803
 2 100 80.0000 4584.2038 12065.5099 0.4753 1.0500 0.1352 0.0803
 2 101 78.8000 4540.8989 11590.8461 0.4972 1.2183 0.1399 0.0817
 2 102 78.0000 4487.3821 11263.7963 0.5119 1.2308 0.1360 0.0688
 2 103 77.2000 4541.6910 11334.0267 0.5195 1.0881 0.1348 0.0761
 2 104 76.4000 4485.9346 11487.2942 0.5117 1.0995 0.1352 0.0753
 2 105 77.6000 4418.0107 11269.2619 0.5055 1.0825 0.1345 0.0814
 2 106 76.0000 4364.8700 11114.6886 0.5168 1.2632 0.1340 0.0765
 2 107 75.6000 4245.8324 11107.9797 0.5060 1.1111 0.1339 0.0765
 2 108 75.2000 4270.9452 11003.6455 0.5164 0.9574 0.1347 0.0734
 3  1 76.0000 4613.9840 12242.7971 0.4959 1.5789 0.1306 0.0861
 3  2 76.0000 4613.9840 12242.7971 0.4959 1.2632 0.1306 0.0861
 3  3 76.0000 4613.9840 12242.7971 0.4959 1.4211 0.1306 0.0861
 3  4 76.0000 4613.9840 12242.7971 0.4959 1.5789 0.1306 0.0861
 3  5 74.8000 4547.7377 12052.0664 0.5047 1.4439 0.1306 0.0861
 3  6 76.0000 4613.9840 12242.7971 0.4959 1.4211 0.1306 0.0861
 3  7 79.6000 4869.9592 13150.3888 0.4661 1.5075 0.1332 0.0942
 3  8 74.8000 4581.0174 12125.2171 0.5051 1.4439 0.1306 0.0861
 3  9 79.2000 4808.0992 12772.4902 0.4754 1.3636 0.1414 0.1041
 3 10 81.6000 4901.6009 13333.9338 0.4513 1.3235 0.1306 0.0867
 3 11 78.8000 4758.2839 12796.1594 0.4731 1.5228 0.1306 0.0861
 3 12 85.6000 5183.5046 13888.6970 0.4367 1.1215 0.1306 0.0852
 3 13 77.2000 4686.6648 12269.7081 0.4949 1.5544 0.1310 0.0849
 3 14 82.0000 4945.4490 13359.0459 0.4519 1.1707 0.1306 0.0861
 3 15 82.4000 5002.9590 13340.6500 0.4560 1.4563 0.1416 0.1060
 3 16 79.2000 4899.8226 13037.6984 0.4747 1.5152 0.1338 0.0890
 3 17 92.0000 5651.7201 15347.2829 0.4003 1.3043 0.1424 0.1085
 3 18 87.6000 5342.9833 14497.2785 0.4215 1.3699 0.1430 0.1080
 3 19 82.8000 4976.4832 13580.5333 0.4433 1.3043 0.1321 0.0953
 3 20 78.0000 4791.0824 12727.5854 0.4832 1.3846 0.1341 0.0902
 3 21 81.6000 4927.0161 13106.3367 0.4624 1.4706 0.1306 0.0832
 3 22 85.6000 5131.6355 13758.3646 0.4358 1.4019 0.1359 0.0961
 3 23 77.2000 4700.8232 12459.7824 0.4892 1.2435 0.1404 0.1049
 3 24 81.2000 4816.7741 12774.1633 0.4659 1.4778 0.1315 0.0885
 3 25 79.6000 4892.5826 13062.4680 0.4709 1.2060 0.1362 0.0954
 3 26 86.4000 5210.4985 14002.8219 0.4324 1.3889 0.1373 0.0916
 3 27 83.2000 5015.3086 13486.3080 0.4473 1.4423 0.1410 0.1014
 3 28 82.8000 5045.1110 13660.1808 0.4464 1.4493 0.1342 0.0952
 3 29 80.0000 4849.7673 12774.5125 0.4746 1.5000 0.1337 0.0935
 3 30 76.8000 4611.1690 12144.5758 0.4958 1.4063 0.1315 0.0794
 3 31 85.2000 5263.3292 14104.2796 0.4386 1.4085 0.1419 0.1043
 3 32 81.6000 5008.3934 13024.1407 0.4711 1.4706 0.1315 0.0856
 3 33 76.8000 4715.6396 12181.0235 0.5043 1.5625 0.1359 0.0900
 3 34 78.4000 4748.7325 12545.4912 0.4830 1.3776 0.1341 0.0919
 3 35 74.8000 4581.3496 11940.6015 0.5140 1.6043 0.1301 0.0765
 3 36 80.0000 4834.2395 12753.5253 0.4737 1.3500 0.1316 0.0818
 3 37 80.8000 4858.3411 13065.6868 0.4613 1.4851 0.1348 0.0993
 3 38 83.2000 4992.8175 13297.5048 0.4528 1.4423 0.1296 0.0787
 3 39 82.0000 4964.1086 13290.5384 0.4567 1.4634 0.1422 0.1025
 3 40 82.8000 5025.8133 13598.3472 0.4485 1.0145 0.1441 0.1185
 3 41 81.6000 5042.6490 13469.0674 0.4586 1.4706 0.1439 0.1071
 3 42 80.4000 4643.7433 12287.5148 0.4705 1.4925 0.1355 0.0943
 3 43 76.8000 4596.5490 12017.4453 0.4982 1.5625 0.1251 0.0731
 3 44 84.8000 5120.6605 13952.8062 0.4347 1.4151 0.1372 0.1019
 3 45 89.6000 5409.2072 14337.3639 0.4214 1.3393 0.1419 0.0965
 3 46 84.0000 5141.5077 13779.3716 0.4448 1.4286 0.1449 0.1126
 3 47 82.8000 4968.5579 13237.3199 0.4538 1.4493 0.1364 0.1010
 3 48 87.6000 5310.7495 14249.0491 0.4265 1.3699 0.1421 0.1119
 3 49 82.4000 4907.4156 12707.8989 0.4686 1.1650 0.1330 0.0894
 3 50 85.6000 5240.6770 13899.9714 0.4432 1.4019 0.1232 0.0692
 3 51 82.8000 5072.1740 13475.1139 0.4544 1.4493 0.1286 0.0866
 3 52 78.0000 4751.5176 12774.3310 0.4763 1.3846 0.1419 0.0994
 3 53 83.6000 5206.7011 13769.1322 0.4527 1.2919 0.1407 0.0944
 3 54 88.0000 5405.7719 14064.7128 0.4382 1.2273 0.1297 0.0742
 3 55 79.2000 4699.9874 12340.2740 0.4820 1.5152 0.1335 0.0862
 3 56 81.6000 4861.7917 12595.1463 0.4742 1.4706 0.1359 0.0900
 3 57 86.4000 5324.9438 13634.0289 0.4526 1.3889 0.1351 0.0928
 3 58 85.6000 5276.4677 13953.7563 0.4434 1.4019 0.1314 0.0836
 3 59 90.8000 5637.3003 14866.5339 0.4172 1.0573 0.1464 0.1015
 3 60 91.2000 5609.9845 14926.1101 0.4126 1.1842 0.1489 0.1108
 3 61 89.6000 5615.6442 14854.1890 0.4224 1.3393 0.1474 0.1134
 3 62 84.0000 5124.1845 13300.6525 0.4607 1.4286 0.1448 0.1024
 3 63 89.6000 5502.5696 14476.7372 0.4252 1.3393 0.1529 0.1125
 3 64 91.6000 5697.2506 14979.7936 0.4154 1.3100 0.1481 0.1082
 3 65 92.8000 5788.6960 15319.8438 0.4071 1.2931 0.1386 0.0984
 3 66 94.4000 5765.4499 15488.3422 0.3946 1.2712 0.1401 0.0956
 3 67 93.6000 5802.5426 15272.2911 0.4065 1.2821 0.1484 0.1136
 3 68 89.2000 5438.0246 14320.9349 0.4286 1.3453 0.1464 0.1025
 3 69 85.6000 5216.2083 13325.5087 0.4582 1.4019 0.1292 0.0706
 3 70 90.8000 5610.1092 14445.3672 0.4278 1.1894 0.1473 0.1024
 3 71 86.4000 5315.5258 13698.4140 0.4495 1.3889 0.1443 0.0968
 3 72 89.6000 5471.6256 14098.6343 0.4332 1.3393 0.1485 0.0974
 4  1 76.0000 4613.9840 12242.7971 0.4959 1.4211 0.1306 0.0861
 4  2 76.0000 4613.9840 12242.7971 0.4959 1.2632 0.1306 0.0861
 4  3 76.0000 4613.9840 12242.7971 0.4959 1.5789 0.1306 0.0861
 4  4 76.0000 4613.9840 12242.7971 0.4959 1.4211 0.1306 0.0861
 4  5 76.0000 4613.9840 12115.6842 0.5013 1.4211 0.1306 0.0861
 4  6 82.4000 5014.2591 13508.2729 0.4511 1.3107 0.1416 0.1060
 4  7 78.0000 4769.4918 12619.4595 0.4845 1.5385 0.1306 0.0861
 4  8 83.2000 4937.5584 13187.9809 0.4503 1.1538 0.1365 0.0975
 4  9 89.6000 5387.6319 14706.4060 0.4092 1.3393 0.1500 0.1224
 4 10 78.8000 4739.8253 12775.5315 0.4716 1.5228 0.1307 0.0855
 4 11 78.8000 4745.8880 12642.4207 0.4767 1.2183 0.1306 0.0861
 4 12 81.6000 4949.6637 13276.1386 0.4569 1.4706 0.1310 0.0869
 4 13 78.0000 4715.6529 12555.8989 0.4819 1.3846 0.1282 0.0774
 4 14 79.2000 4829.0899 12775.5767 0.4781 1.5152 0.1282 0.0751
 4 15 81.6000 4947.0673 13308.1446 0.4566 1.3235 0.1388 0.1030
 4 16 78.0000 4724.0401 12448.0290 0.4869 1.5385 0.1312 0.0847
 4 17 87.2000 5374.3351 14609.1285 0.4225 1.3761 0.1383 0.0992
 4 18 78.4000 4746.1421 12621.7172 0.4795 1.3776 0.1342 0.0921
 4 19 74.8000 4600.5014 12046.2380 0.5112 1.6043 0.1394 0.0986
 4 20 87.6000 5370.6617 14379.5812 0.4267 1.3699 0.1430 0.0967
 4 21 84.8000 5189.6899 13871.4632 0.4424 1.4151 0.1413 0.1101
 4 22 80.8000 4908.7599 13187.0435 0.4619 1.4851 0.1254 0.0762
 4 23 82.4000 5046.4099 13702.3449 0.4472 1.3107 0.1429 0.1080
 4 24 87.2000 5330.3732 14212.2802 0.4316 1.3761 0.1444 0.1088
 4 25 79.2000 4925.7227 13093.4841 0.4764 1.5152 0.1362 0.0994
 4 26 82.8000 4937.4185 13160.3835 0.4532 1.4493 0.1322 0.0869
 4 27 90.0000 5478.1617 14668.5012 0.4150 1.3333 0.1429 0.1063
 4 28 77.6000 4755.3550 12390.3180 0.4966 1.3918 0.1278 0.0762
 4 29 79.2000 4777.5008 12542.7696 0.4823 1.3636 0.1264 0.0835
 4 30 83.6000 5110.4497 13750.8864 0.4453 1.4354 0.1367 0.1000
 4 31 85.2000 5235.5001 13768.8909 0.4474 1.4085 0.1434 0.1080
 4 32 75.2000 4401.7242 11472.2856 0.5114 1.4362 0.1166 0.0556
 4 33 76.4000 4581.3876 12107.1870 0.4970 1.5707 0.1377 0.1072
 4 34 85.6000 5217.2416 13958.4016 0.4380 1.4019 0.1323 0.0864
 4 35 84.0000 5119.7008 13678.6390 0.4465 1.4286 0.1297 0.0785
 4 36 86.0000 5324.1418 14388.5432 0.4318 1.3953 0.1473 0.1122
 4 37 89.2000 5533.4840 14771.2822 0.4207 1.3453 0.1383 0.0996
 4 38 80.8000 4767.9095 12645.9592 0.4668 1.3366 0.1308 0.0810
 4 39 79.6000 4861.4418 12789.0550 0.4785 1.5075 0.1250 0.0719
 4 40 73.2000 4442.6934 11867.7661 0.5136 1.4754 0.1352 0.0949
 4 41 78.4000 4698.2490 12368.2944 0.4874 1.5306 0.1392 0.0971
 4 42 78.0000 4600.1247 11662.8846 0.5084 1.5385 0.1328 0.0862
 4 43 79.6000 4878.9623 13070.1913 0.4738 1.5075 0.1399 0.1065
 4 44 83.6000 5178.7801 13667.0274 0.4534 1.4354 0.1370 0.0914
 4 45 82.4000 5053.0934 13264.2226 0.4610 1.4563 0.1383 0.0937
 4 46 84.0000 4901.9772 12953.9546 0.4524 1.4286 0.1335 0.0846
 4 47 85.2000 5212.7007 13866.1160 0.4417 1.1268 0.1429 0.1091
 4 48 87.2000 5172.7694 13577.3904 0.4371 1.3761 0.1342 0.0900
 4 49 89.2000 5548.0512 14485.0491 0.4293 1.3453 0.1378 0.0960
 4 50 80.0000 4806.4931 12395.6889 0.4842 1.3500 0.1444 0.0970
 4 51 91.6000 5754.2251 15108.7865 0.4163 1.4410 0.1521 0.1174
 4 52 81.6000 4861.0443 12457.0488 0.4795 1.4706 0.1301 0.0739
 4 53 87.6000 5419.7451 14248.6669 0.4351 1.3699 0.1402 0.0930
 4 54 89.6000 5477.7219 14029.6410 0.4361 1.3393 0.1424 0.0991
 5  1 76.0000 4613.9840 12242.7971 0.4959 1.2632 0.1306 0.0861
 5  2 76.0000 4613.9840 12242.7971 0.4959 1.5789 0.1306 0.0861
 5  3 79.2000 4820.1439 12902.6262 0.4724 1.3636 0.1306 0.0861
 5  4 79.2000 4820.1439 12909.3161 0.4724 1.5152 0.1307 0.0847
 5  5 80.0000 4824.2527 12946.4034 0.4663 1.2000 0.1306 0.0861
 5  6 76.4000 4624.0923 12275.8915 0.4930 1.5707 0.1306 0.0861
 5  7 77.2000 4669.2184 12214.9350 0.4952 1.3990 0.1306 0.0861
 5  8 77.2000 4679.0571 12499.3335 0.4852 1.2435 0.1306 0.0861
 5  9 82.4000 5056.6525 13559.4846 0.4533 1.4563 0.1444 0.1063
 5 10 77.6000 4735.7122 12583.8983 0.4857 1.3918 0.1419 0.1054
 5 11 87.2000 5384.1572 14812.6111 0.4178 1.3761 0.1424 0.1074
 5 12 86.0000 5279.0451 14395.6565 0.4268 1.3953 0.1306 0.0861
 5 13 80.8000 4890.9452 12821.4540 0.4719 1.4851 0.1311 0.0847
 5 14 83.2000 5154.5886 13959.8527 0.4445 1.2981 0.1338 0.0995
 5 15 84.4000 5297.5113 14197.0952 0.4420 1.4218 0.1494 0.1162
 5 16 84.4000 5169.2056 14091.4222 0.4357 1.4218 0.1340 0.0899
 5 17 78.8000 4928.4047 13063.9254 0.4797 1.5228 0.1386 0.1030
 5 18 78.4000 4750.4907 12407.2973 0.4893 1.3776 0.1364 0.0951
 5 19 81.2000 5001.4661 13484.7776 0.4568 1.4778 0.1418 0.1038
 5 20 84.8000 5258.8213 14035.9210 0.4421 1.4151 0.1408 0.1078
 5 21 78.8000 4781.6659 12885.7269 0.4713 1.0660 0.1267 0.0809
 5 22 77.2000 4660.1659 12229.5862 0.4941 1.5544 0.1272 0.0780
 5 23 79.6000 4836.1992 12870.8689 0.4737 1.5075 0.1267 0.0740
 5 24 82.8000 5055.0111 13883.0644 0.4407 1.4493 0.1315 0.0924
 5 25 83.6000 5053.9262 13327.7287 0.4548 1.4354 0.1399 0.1005
 5 26 83.2000 5078.1621 13730.0059 0.4452 1.4423 0.1326 0.0846
 5 27 79.6000 4884.3596 12975.7179 0.4752 1.2060 0.1303 0.0772
 5 28 84.8000 5166.8326 13707.1135 0.4458 1.2736 0.1416 0.1017
 5 29 79.6000 4925.0125 13125.5214 0.4720 1.3568 0.1244 0.0788
 5 30 82.0000 5088.2079 13402.0928 0.4640 1.4634 0.1276 0.0782
 5 31 80.4000 4877.1402 13088.6113 0.4626 1.3433 0.1400 0.1005
 5 32 83.6000 4969.3497 13363.7038 0.4452 1.1483 0.1322 0.0926
 5 33 85.2000 5287.6697 14389.7730 0.4317 1.4085 0.1360 0.0994
 5 34 81.2000 5028.7922 13201.3937 0.4689 1.3300 0.1397 0.0991
 5 35 77.6000 4788.5796 12826.3718 0.4820 1.5464 0.1264 0.0742
 5 36 83.6000 5156.6052 13419.1996 0.4609 1.4354 0.1332 0.0847
 5 37 84.8000 5078.4869 13273.2778 0.4514 1.4151 0.1357 0.0936
 5 38 87.2000 5220.1167 14047.2366 0.4265 1.3761 0.1404 0.1026
 5 39 86.8000 5382.9987 13984.2343 0.4431 1.3825 0.1418 0.1016
 5 40 79.6000 4700.3545 12887.2830 0.4596 1.5075 0.1349 0.0980
 5 41 82.4000 5015.5102 13371.0758 0.4566 1.0194 0.1371 0.1001
 5 42 88.0000 5434.6909 14211.5516 0.4349 1.2273 0.1449 0.1110
 5 43 78.8000 4655.3972 12210.6538 0.4876 1.3706 0.1478 0.1151
 6  1 76.0000 4613.9840 12242.7971 0.4959 1.4211 0.1306 0.0861
 6  2 76.0000 4613.9840 12224.0740 0.4967 1.5789 0.1306 0.0861
 6  3 76.4000 4663.7993 12397.1476 0.4924 1.2565 0.1306 0.0861
 6  4 76.4000 4621.9256 12268.8583 0.4931 1.5707 0.1306 0.0861
 6  5 79.2000 4824.2477 12903.5275 0.4732 1.3636 0.1310 0.0849
 6  6 81.2000 4951.5805 13293.1206 0.4591 1.4778 0.1306 0.0861
 6  7 76.0000 4613.9840 12244.6282 0.4958 1.4211 0.1308 0.0861
 6  8 80.0000 4926.5822 13129.3528 0.4692 1.5000 0.1336 0.0943
 6  9 78.8000 4764.2834 12766.2991 0.4738 1.3706 0.1306 0.0871
 6 10 81.2000 4996.4099 13185.2643 0.4675 1.4778 0.1416 0.1025
 6 11 81.2000 5007.1313 13513.5279 0.4567 1.3300 0.1404 0.1026
 6 12 82.0000 5053.2588 13530.7286 0.4561 1.4634 0.1437 0.1108
 6 13 82.0000 4978.7359 13430.9189 0.4522 1.4634 0.1416 0.1066
 6 14 74.4000 4445.3497 11475.3769 0.5212 1.2903 0.1282 0.0724
 6 15 82.8000 5042.5770 13582.2140 0.4484 1.4493 0.1407 0.0950
 6 16 82.8000 5009.6798 13525.4062 0.4475 1.3043 0.1364 0.0988
 6 17 90.4000 5580.8371 15105.1740 0.4089 1.4602 0.1437 0.1096
 6 18 84.0000 5076.2852 13235.1448 0.4578 1.1429 0.1442 0.1114
 6 19 84.0000 5118.4130 13506.5936 0.4522 1.4286 0.1378 0.0996
 6 20 84.4000 5127.0317 13387.8858 0.4541 1.4218 0.1382 0.0988
 6 21 73.6000 4511.8788 11824.4004 0.5184 1.6304 0.1245 0.0756
 6 22 77.6000 4762.5967 12457.7447 0.4939 1.0825 0.1420 0.0977
 6 23 82.4000 5069.0845 13370.2717 0.4614 1.3107 0.1396 0.1006
 6 24 76.0000 4479.2072 11733.4846 0.5023 1.4211 0.1317 0.0829
 6 25 84.0000 5106.9897 13281.7166 0.4585 1.4286 0.1333 0.0826
 6 26 76.4000 4441.9895 11703.3477 0.4967 1.4136 0.1263 0.0813
 6 27 76.0000 4716.3808 12406.7293 0.5014 1.5789 0.1329 0.0876
 6 28 87.6000 5337.5247 14476.5812 0.4211 1.3699 0.1341 0.0927
 6 29 83.6000 5061.1958 13309.0117 0.4546 1.4354 0.1270 0.0834
 6 30 84.4000 5113.0522 13293.1708 0.4558 1.4218 0.1348 0.0912
 6 31 81.6000 5003.4921 12981.3499 0.4727 1.4706 0.1134 0.0551
 6 32 85.6000 5294.3498 13984.6812 0.4431 1.4019 0.1460 0.1091
 6 33 84.8000 5193.0277 13567.4190 0.4520 1.4151 0.1385 0.1041
 6 34 85.2000 5056.1652 13439.1339 0.4438 1.4085 0.1373 0.0941
 6 35 87.2000 5271.3751 14026.0342 0.4314 1.3761 0.1369 0.0936
 6 36 92.8000 5708.4702 15268.3160 0.4031 1.2931 0.1445 0.1084
 7  1 76.0000 4613.9840 12242.7971 0.4959 1.4211 0.1306 0.0861
 7  2 76.0000 4613.9840 12242.7971 0.4959 1.4211 0.1306 0.0861
 7  3 76.0000 4613.9840 12242.7971 0.4959 1.5789 0.1306 0.0861
 7  4 76.4000 4680.7939 12317.0266 0.4976 1.4136 0.1363 0.0950
 7  5 79.2000 4821.4147 12779.3649 0.4766 1.5152 0.1335 0.0878
 7  6 76.8000 4631.5559 12246.4483 0.4924 1.4063 0.1306 0.0861
 7  7 78.8000 4809.9270 12829.0534 0.4763 1.5228 0.1421 0.1076
 7  8 84.8000 5145.7567 13765.1520 0.4413 1.4151 0.1310 0.0855
 7  9 83.2000 5089.4569 13512.3654 0.4533 1.2981 0.1423 0.1051
 7 10 79.6000 4819.2704 13020.8797 0.4654 1.5075 0.1306 0.0845
 7 11 78.0000 4752.9373 12692.7973 0.4800 1.5385 0.1310 0.0852
 7 12 84.4000 5146.0816 14069.1925 0.4334 1.4218 0.1415 0.1070
 7 13 84.8000 5094.0065 13583.7882 0.4432 1.2736 0.1445 0.1100
 7 14 84.4000 5105.4865 13598.4039 0.4451 1.2796 0.1306 0.0862
 7 15 82.4000 4996.8957 13021.9509 0.4660 1.4563 0.1316 0.0850
 7 16 83.6000 5084.2674 13694.8239 0.4439 1.4354 0.1348 0.0948
 7 17 78.0000 4657.0723 12308.2776 0.4870 1.5385 0.1308 0.0928
 7 18 77.2000 4684.5289 12399.9119 0.4897 1.2435 0.1380 0.0994
 7 19 82.0000 5091.8369 13735.8574 0.4517 1.4634 0.1350 0.0910
 7 20 80.4000 4934.8273 13405.0226 0.4587 1.4925 0.1328 0.1014
 7 21 80.0000 4887.0103 13163.1028 0.4655 1.3500 0.1310 0.0934
 7 22 69.2000 4201.7903 10920.7680 0.5570 1.7341 0.1314 0.0858
 7 23 86.4000 5186.5177 13768.1493 0.4379 1.2500 0.1399 0.1070
 7 24 81.2000 5081.6115 13209.1032 0.4735 1.3300 0.1347 0.0936
 7 25 85.2000 5138.4561 13929.1012 0.4349 1.4085 0.1459 0.1142
 7 26 82.0000 5112.5505 13638.1845 0.4561 1.4634 0.1319 0.0892
 7 27 80.4000 4904.4632 12808.7864 0.4775 1.3433 0.1248 0.0726
 7 28 81.6000 5125.1296 13413.7984 0.4682 1.4706 0.1430 0.0998
 7 29 83.6000 5160.6983 13542.2895 0.4553 1.4354 0.1407 0.0992
 7 30 82.4000 4884.6260 12970.3982 0.4585 1.4563 0.1273 0.0792
 8  1 76.0000 4613.9840 12242.7971 0.4959 1.4211 0.1306 0.0861
 8  2 76.0000 4613.9840 12242.7971 0.4959 1.4211 0.1306 0.0861
 8  3 76.0000 4613.9840 12242.7971 0.4959 1.4211 0.1306 0.0861
 8  4 79.2000 4798.4083 12853.1875 0.4717 1.5152 0.1335 0.0936
 8  5 79.2000 4808.0992 12824.7601 0.4742 1.5152 0.1306 0.0861
 8  6 80.8000 4916.6662 13180.0799 0.4629 1.4851 0.1427 0.1108
 8  7 76.0000 4622.1916 12216.9421 0.4978 1.2632 0.1311 0.0855
 8  8 80.8000 4998.9220 13150.7152 0.4693 1.4851 0.1524 0.1139
 8  9 79.6000 4818.3079 12867.2945 0.4713 1.3568 0.1414 0.1065
 8 10 78.8000 4761.3969 12674.2134 0.4773 1.5228 0.1342 0.0926
 8 11 80.4000 4853.8619 13040.8024 0.4632 1.0448 0.1282 0.0788
 8 12 86.0000 5284.1882 14225.6233 0.4326 1.3953 0.1340 0.0894
 8 13 84.8000 5210.6489 14019.5008 0.4391 1.4151 0.1440 0.1064
 8 14 78.8000 4889.5877 12878.8972 0.4811 1.5228 0.1361 0.0909
 8 15 86.4000 5261.0077 13942.6259 0.4371 1.3889 0.1340 0.0886
 8 16 79.2000 4884.1096 12975.1700 0.4762 1.5152 0.1310 0.0908
 8 17 79.6000 4873.8569 12880.5116 0.4790 1.3568 0.1314 0.0868
 8 18 82.4000 5066.2689 13626.9842 0.4520 1.3107 0.1283 0.0787
 8 19 84.8000 5192.2645 13875.3659 0.4427 1.4151 0.1430 0.1068
 8 20 83.2000 5109.8814 13568.6353 0.4547 1.4423 0.1306 0.0832
 8 21 78.0000 4716.8924 12447.7604 0.4867 1.3846 0.1307 0.0903
 8 22 84.0000 5031.0794 13469.7101 0.4454 1.1429 0.1346 0.0870
 8 23 78.0000 4598.3813 11924.7381 0.4948 1.5385 0.1320 0.0912
 8 24 90.0000 5619.0766 14813.1778 0.4240 1.3333 0.1506 0.1218
 8 25 86.8000 5410.3436 14007.5308 0.4457 1.3825 0.1442 0.1083
 8 26 84.0000 5223.5894 14105.5600 0.4413 1.2857 0.1316 0.0881
 8 27 85.2000 5165.5543 13606.9099 0.4458 1.4085 0.1378 0.0950
 9  1 76.0000 4613.9840 12242.7971 0.4959 1.4211 0.1306 0.0861
 9  2 76.0000 4613.9840 12242.7971 0.4959 1.5789 0.1306 0.0861
 9  3 76.0000 4613.9840 12337.2521 0.4922 1.4211 0.1307 0.0896
 9  4 76.0000 4613.9840 12242.7971 0.4959 1.4211 0.1306 0.0861
 9  5 79.6000 4827.2481 12979.3948 0.4677 1.5075 0.1306 0.0861
 9  6 81.6000 4954.3355 13337.9104 0.4558 1.3235 0.1307 0.0862
 9  7 86.8000 5309.1814 14393.6460 0.4262 1.3825 0.1474 0.1148
 9  8 79.2000 4804.2335 12769.6353 0.4765 1.5152 0.1424 0.1089
 9  9 84.8000 5097.6677 13719.6715 0.4384 1.4151 0.1415 0.1054
 9 10 89.2000 5348.9637 14567.9957 0.4120 1.3453 0.1410 0.1048
 9 11 80.4000 4901.1541 13080.2192 0.4678 1.3433 0.1422 0.1102
 9 12 78.0000 4743.3529 12580.1558 0.4850 1.5385 0.1373 0.0948
 9 13 80.0000 4871.6160 13163.6478 0.4633 1.2000 0.1420 0.1082
 9 14 84.4000 5141.6702 13806.0433 0.4443 1.2796 0.1436 0.1104
 9 15 90.8000 5593.1766 15333.5099 0.4021 1.3216 0.1371 0.0958
 9 16 77.6000 4811.8668 13191.1305 0.4712 1.5464 0.1263 0.0838
 9 17 78.4000 4815.2226 13046.2803 0.4726 1.5306 0.1283 0.0742
 9 18 80.4000 4882.3711 12929.7059 0.4717 1.3433 0.1369 0.0959
 9 19 78.8000 4803.4398 12396.2822 0.4922 1.5228 0.1395 0.0990
 9 20 78.8000 4777.1993 12630.9504 0.4806 1.2183 0.1310 0.0826
 9 21 81.6000 4990.2554 13326.7733 0.4595 1.4706 0.1291 0.0766
 9 22 88.4000 5392.1507 14547.3203 0.4202 1.3575 0.1362 0.0959
 9 23 82.8000 5105.5802 13181.7023 0.4677 1.4493 0.1334 0.0954
 9 24 81.6000 4950.9225 13013.8179 0.4676 1.4706 0.1233 0.0675
10  1 76.0000 4613.9840 12242.7971 0.4959 1.2632 0.1306 0.0861
10  2 79.2000 4820.1439 12953.9850 0.4707 1.5152 0.1423 0.1104
10  3 79.6000 4830.2521 12995.1318 0.4681 1.3568 0.1306 0.0861
10  4 79.2000 4820.1439 12962.0374 0.4707 1.3636 0.1424 0.1115
10  5 75.2000 4578.3334 12083.4999 0.5046 1.4362 0.1283 0.0775
10  6 78.4000 4788.0840 12629.2308 0.4843 1.5306 0.1306 0.0861
10  7 84.0000 5130.3663 13999.2067 0.4370 1.2857 0.1350 0.0954
10  8 80.8000 4915.6468 13276.0542 0.4588 1.4851 0.1332 0.0911
10  9 78.4000 4837.4884 13054.5065 0.4739 1.5306 0.1324 0.0823
10 10 84.4000 5120.1981 13640.7603 0.4460 1.4218 0.1414 0.1090
10 11 87.2000 5314.5027 14102.5249 0.4333 1.2385 0.1433 0.1030
10 12 87.2000 5270.6627 14507.3643 0.4172 1.2385 0.1386 0.1001
10 13 80.0000 4885.8957 13124.4104 0.4659 1.5000 0.1360 0.1002
10 14 83.2000 5127.5472 13675.2852 0.4502 1.4423 0.1441 0.1054
10 15 82.4000 5002.4269 13511.2266 0.4497 1.4563 0.1324 0.0961
10 16 84.4000 5190.6215 13882.3230 0.4448 1.4218 0.1429 0.1092
10 17 81.6000 4967.3646 12991.0808 0.4693 1.4706 0.1307 0.0815
10 18 86.8000 5316.7437 14214.2442 0.4312 1.3825 0.1356 0.0943
10 19 87.6000 5330.8894 13994.4135 0.4351 1.3699 0.1326 0.0886
10 20 81.2000 4947.4595 13038.1885 0.4684 1.4778 0.1403 0.0962
10 21 76.4000 4607.3383 11990.8853 0.5034 1.2565 0.1272 0.0760
11  1 76.0000 4613.9840 12242.7971 0.4959 1.5789 0.1306 0.0861
11  2 76.0000 4613.9840 12242.7971 0.4959 1.4211 0.1306 0.0861
11  3 80.8000 4926.6898 13162.5081 0.4635 1.4851 0.1423 0.1063
11  4 82.4000 5026.3037 13450.5258 0.4540 1.4563 0.1306 0.0861
11  5 83.2000 4979.7594 13404.8718 0.4465 1.1538 0.1381 0.0972
11  6 79.6000 4792.0075 12679.0685 0.4751 1.5075 0.1311 0.0872
11  7 73.2000 4460.2104 11912.8378 0.5120 1.4754 0.1316 0.0884
11  8 82.0000 5006.8188 13557.7868 0.4512 1.4634 0.1306 0.0861
11  9 80.0000 4795.6749 12914.2612 0.4654 1.5000 0.1378 0.1031
11 10 77.6000 4785.7328 12653.9018 0.4891 1.3918 0.1479 0.1165
11 11 85.6000 5158.2716 13699.5049 0.4403 1.4019 0.1391 0.0956
11 12 83.6000 5108.8539 13975.0475 0.4383 1.4354 0.1342 0.0888
11 13 83.6000 5179.9971 13688.1017 0.4528 1.4354 0.1282 0.0784
11 14 79.2000 4770.5629 12707.9140 0.4753 1.5152 0.1282 0.0749
11 15 77.2000 4766.2498 12611.9589 0.4905 1.3990 0.1366 0.0972
11 16 82.4000 5187.7236 13805.1606 0.4565 1.4563 0.1313 0.0874
11 17 78.8000 4773.0236 12827.4958 0.4739 1.5228 0.1229 0.0704
11 18 77.6000 4778.2947 12598.9205 0.4901 1.3918 0.1403 0.1028
11 19 83.6000 5090.8751 13384.8259 0.4564 1.4354 0.1396 0.1060
12  1 76.0000 4613.9840 12242.7971 0.4959 1.4211 0.1306 0.0861
12  2 76.0000 4613.9840 12242.7971 0.4959 1.5789 0.1306 0.0861
12  3 76.0000 4618.0878 12246.1957 0.4962 1.4211 0.1306 0.0861
12  4 76.0000 4613.9840 12223.7170 0.4967 1.5789 0.1306 0.0861
12  5 76.0000 4613.9840 12320.7852 0.4929 1.4211 0.1305 0.0849
12  6 82.8000 5068.9166 13785.7589 0.4459 1.4493 0.1466 0.1180
12  7 83.6000 5107.0452 13604.3216 0.4494 1.4354 0.1361 0.0948
12  8 78.4000 4803.6544 12567.2801 0.4880 1.2245 0.1425 0.1028
12  9 82.8000 5052.5494 13543.5116 0.4513 1.4493 0.1306 0.0861
12 10 81.2000 4932.2130 13023.3885 0.4675 1.4778 0.1310 0.0867
12 11 82.0000 4904.0796 13386.1001 0.4472 1.3171 0.1258 0.0787
12 12 85.2000 5249.3009 14124.3655 0.4369 1.4085 0.1340 0.0992
12 13 84.4000 5168.7461 13883.6778 0.4412 1.4218 0.1366 0.0991
12 14 81.6000 4927.4944 13021.0542 0.4644 1.4706 0.1388 0.1002
12 15 76.8000 4657.9987 12170.8041 0.4979 1.4063 0.1232 0.0783
12 16 80.8000 4941.1508 13168.4564 0.4644 1.4851 0.1363 0.0937
12 17 85.6000 5170.3473 13670.2493 0.4440 1.4019 0.1392 0.1018
12 18 83.6000 5169.4849 13933.1955 0.4459 1.4354 0.1455 0.1123
13  1 76.0000 4613.9840 12242.7971 0.4959 1.4211 0.1306 0.0861
13  2 76.0000 4613.9840 12242.7971 0.4959 1.4211 0.1306 0.0861
13  3 79.2000 4798.9679 12861.1380 0.4719 1.5152 0.1306 0.0861
13  4 78.8000 4715.4273 12561.7988 0.4765 1.3706 0.1313 0.0871
13  5 79.6000 4834.3559 12780.5052 0.4756 1.5075 0.1305 0.0814
13  6 78.0000 4749.7937 12547.2003 0.4858 1.3846 0.1309 0.0848
13  7 83.6000 5044.4672 13307.4216 0.4544 1.4354 0.1306 0.0860
13  8 84.0000 5007.1473 13592.7413 0.4391 1.4286 0.1361 0.0965
13  9 83.2000 5045.0391 13743.8585 0.4415 0.8654 0.1333 0.0902
13 10 76.4000 4626.6056 12356.3481 0.4920 1.5707 0.1422 0.1108
13 11 87.2000 5236.6219 14292.8137 0.4208 1.3761 0.1378 0.0990
13 12 79.6000 4888.4855 12990.3926 0.4733 1.3568 0.1310 0.0860
13 13 79.2000 4900.6722 13320.2519 0.4653 1.5152 0.1384 0.0996
13 14 80.0000 4836.8047 12797.3428 0.4727 1.3500 0.1288 0.0793
13 15 82.0000 5055.0408 13238.3076 0.4678 1.4634 0.1338 0.0805
13 16 86.8000 5326.9522 14145.9558 0.4342 1.3825 0.1439 0.1055
14  1 76.0000 4613.9840 12242.7971 0.4959 1.5789 0.1306 0.0861
14  2 79.2000 4820.1439 12881.9202 0.4730 1.3636 0.1306 0.0861
14  3 74.8000 4543.6339 11999.0148 0.5065 1.4439 0.1306 0.0861
14  4 80.4000 4935.9927 13217.1079 0.4653 1.4925 0.1424 0.1089
14  5 79.6000 4818.1168 12874.6466 0.4710 1.2060 0.1316 0.0861
14  6 82.0000 4906.1931 13066.1955 0.4580 1.3171 0.1306 0.0873
14  7 78.8000 4758.2839 12654.3408 0.4774 1.5228 0.1308 0.0855
14  8 85.2000 5170.8637 14071.5604 0.4315 1.4085 0.1424 0.1074
14  9 80.8000 4860.7879 12979.7287 0.4640 1.1881 0.1253 0.0767
14 10 82.0000 4925.6032 13357.8059 0.4507 1.4634 0.1340 0.0968
14 11 83.6000 5035.5220 13529.7857 0.4463 1.0048 0.1453 0.1108
14 12 78.4000 4827.0553 12729.1278 0.4856 1.3776 0.1480 0.1177
14 13 81.6000 4962.8759 13086.7914 0.4666 1.4706 0.1379 0.0965
14 14 85.6000 5211.0678 13790.4510 0.4426 1.4019 0.1331 0.0855
14 15 82.0000 4867.2915 13115.2878 0.4541 1.1707 0.1311 0.0814
15  1 76.0000 4613.9840 12242.7971 0.4959 1.5789 0.1306 0.0861
15  2 76.0000 4613.9840 12224.5287 0.4966 1.4211 0.1306 0.0852
15  3 74.8000 4581.0174 12066.2468 0.5076 1.4439 0.1307 0.0857
15  4 82.4000 5014.2591 13455.2931 0.4531 1.3107 0.1306 0.0861
15  5 84.0000 5126.0803 13693.2262 0.4458 1.4286 0.1306 0.0866
15  6 83.2000 5058.2720 13722.8051 0.4438 1.0096 0.1382 0.1002
15  7 82.4000 5042.0792 13503.9684 0.4532 1.4563 0.1412 0.1032
15  8 84.8000 5056.0708 13401.5430 0.4449 1.4151 0.1325 0.0909
15  9 83.2000 5110.9811 13746.0127 0.4495 1.4423 0.1282 0.0759
15 10 84.4000 5255.6632 14161.4245 0.4404 1.4218 0.1306 0.0849
15 11 78.4000 4794.8191 12866.1656 0.4771 1.3776 0.1310 0.0833
15 12 86.8000 5339.3381 14391.2788 0.4281 1.3825 0.1380 0.0984
15 13 79.6000 4908.2864 13017.7951 0.4755 1.5075 0.1283 0.0744
15 14 83.2000 5157.2422 13551.9228 0.4587 1.2981 0.1437 0.1100
16  1 76.0000 4613.9840 12242.7971 0.4959 1.5789 0.1306 0.0861
16  2 76.0000 4613.9840 12219.0730 0.4969 1.4211 0.1306 0.0861
16  3 81.6000 4945.2042 13481.3711 0.4510 1.4706 0.1306 0.0861
16  4 76.4000 4621.9256 12284.4761 0.4925 1.4136 0.1307 0.0868
16  5 82.4000 5034.3471 13734.2212 0.4458 1.1650 0.1422 0.1128
16  6 82.4000 5007.2429 13454.0574 0.4531 1.1650 0.1222 0.0701
16  7 86.0000 5168.3988 13872.8390 0.4332 1.3953 0.1312 0.0880
16  8 80.8000 4870.2175 13043.6267 0.4626 1.4851 0.1315 0.0814
16  9 79.6000 4859.9554 12892.3484 0.4746 1.3568 0.1316 0.0839
16 10 77.6000 4697.8895 12320.7229 0.4917 1.5464 0.1369 0.0963
16 11 83.6000 5123.8332 13861.4854 0.4432 1.4354 0.1379 0.1043
16 12 79.6000 4892.8072 13040.5494 0.4715 1.3568 0.1293 0.0841
16 13 88.0000 5316.6495 14231.2222 0.4251 1.2273 0.1406 0.1082
17  1 76.0000 4613.9840 12242.7971 0.4959 1.4211 0.1306 0.0861
17  2 76.0000 4613.9840 12267.0567 0.4949 1.4211 0.1306 0.0861
17  3 79.2000 4820.1439 12902.6262 0.4724 1.5152 0.1306 0.0861
17  4 82.0000 4951.9359 13146.1330 0.4595 1.1707 0.1444 0.1101
17  5 77.6000 4728.8724 12682.9479 0.4810 1.5464 0.1332 0.0942
17  6 80.0000 4868.0228 12954.9506 0.4700 1.3500 0.1306 0.0861
17  7 81.2000 4923.5073 13274.1461 0.4571 1.4778 0.1306 0.0866
17  8 86.0000 5110.5968 13670.1116 0.4353 1.3953 0.1306 0.0859
17  9 85.6000 5297.0393 14265.8331 0.4342 1.4019 0.1358 0.1021
17 10 88.0000 5293.1976 14422.3496 0.4178 1.3636 0.1404 0.1105
17 11 76.8000 4788.8936 12572.3949 0.4967 1.5625 0.1254 0.0800
17 12 83.2000 5082.4231 13937.5376 0.4393 1.2981 0.1362 0.0997
18  1 76.0000 4613.9840 12242.7971 0.4959 1.4211 0.1306 0.0861
18  2 76.0000 4613.9840 12242.7971 0.4959 1.2632 0.1306 0.0861
18  3 78.0000 4696.6290 12496.9364 0.4821 1.3846 0.1305 0.0849
18  4 81.2000 4954.9707 13283.6025 0.4608 1.4778 0.1429 0.1116
18  5 82.8000 5007.8358 13282.6192 0.4559 1.3043 0.1283 0.0763
18  6 79.6000 4903.9329 13071.1735 0.4729 1.5075 0.1306 0.0848
18  7 84.4000 5145.2046 13860.4261 0.4400 1.4218 0.1422 0.1068
18  8 80.0000 4870.9014 12900.2783 0.4727 1.2000 0.1332 0.0913
18  9 77.6000 4696.4230 12536.7897 0.4841 1.5464 0.1356 0.1007
18 10 82.4000 5061.5291 13396.0791 0.4596 1.3107 0.1266 0.0777
18 11 79.2000 4778.6995 12449.9215 0.4846 1.5152 0.1316 0.0856
18 12 86.4000 5242.1786 14106.0055 0.4305 1.3889 0.1313 0.0872
19  1 76.0000 4613.9840 12242.7971 0.4959 1.4211 0.1306 0.0861
19  2 79.2000 4820.1439 12821.1326 0.4749 1.2121 0.1306 0.0861
19  3 76.0000 4613.9840 12223.4555 0.4967 1.2632 0.1306 0.0854
19  4 77.6000 4717.9206 12554.6045 0.4852 1.3918 0.1415 0.1051
19  5 84.4000 5218.3041 14188.5819 0.4367 1.4218 0.1422 0.1097
19  6 76.8000 4698.4989 12437.9497 0.4931 1.2500 0.1307 0.0839
19  7 80.8000 4869.1791 12939.5969 0.4660 1.4851 0.1283 0.0778
19  8 87.6000 5297.3740 14583.4503 0.4152 1.0959 0.1385 0.1013
19  9 82.0000 4977.3607 13286.2812 0.4573 1.3171 0.1317 0.0853
19 10 75.2000 4578.1884 11992.9300 0.5075 1.5957 0.1298 0.0857
19 11 81.6000 5021.2935 13161.0635 0.4685 1.1765 0.1388 0.0979
20  1 76.0000 4613.9840 12242.7971 0.4959 1.4211 0.1306 0.0861
20  2 76.0000 4613.9840 12242.7971 0.4959 1.4211 0.1306 0.0861
20  3 79.2000 4820.1439 12908.7032 0.4715 1.5152 0.1306 0.0861
20  4 76.4000 4674.8861 12564.7679 0.4872 1.4136 0.1322 0.0898
20  5 78.4000 4711.5895 12596.2265 0.4773 1.3776 0.1308 0.0855
20  6 84.4000 5150.3637 13744.2847 0.4447 1.4218 0.1492 0.1168
20  7 84.8000 5180.1254 13877.6260 0.4416 1.2736 0.1317 0.0857
20  8 81.6000 5090.7422 13637.9767 0.4577 1.4706 0.1231 0.0771
20  9 71.6000 4275.8534 10979.4410 0.5450 1.5084 0.1309 0.0798
20 10 80.4000 4885.3819 12919.6016 0.4703 1.4925 0.1310 0.0876
21  1 76.0000 4613.9840 12242.7971 0.4959 1.4211 0.1306 0.0861
21  2 76.0000 4613.9840 12242.7971 0.4959 1.4211 0.1306 0.0861
21  3 76.0000 4613.9840 12327.4917 0.4926 1.4211 0.1306 0.0861
21  4 79.2000 4820.1439 12932.1332 0.4717 1.5152 0.1306 0.0861
21  5 74.8000 4585.1212 11953.3360 0.5129 1.4439 0.1311 0.0835
21  6 77.6000 4677.5843 12502.6344 0.4822 1.5464 0.1306 0.0856
21  7 80.8000 4907.9874 13287.1684 0.4572 1.3366 0.1316 0.0870
21  8 82.8000 5170.8942 13921.7278 0.4493 1.4493 0.1305 0.0844
21  9 85.2000 5185.0359 13896.6590 0.4396 1.4085 0.1361 0.0954
21 10 75.6000 4601.6165 12170.1301 0.5015 1.4286 0.1245 0.0755
22  1 76.0000 4613.9840 12242.7971 0.4959 1.4211 0.1306 0.0861
22  2 76.0000 4618.0878 12246.1957 0.4962 1.4211 0.1306 0.0861
22  3 76.0000 4613.9840 12243.7379 0.4958 1.5789 0.1306 0.0862
22  4 76.4000 4633.1329 12266.8107 0.4944 1.4136 0.1306 0.0858
22  5 81.2000 4984.9575 13273.0759 0.4640 1.3300 0.1283 0.0744
22  6 80.4000 4869.9615 12989.0168 0.4667 1.4925 0.1313 0.0870
22  7 82.4000 4959.2978 13426.4564 0.4494 1.1650 0.1316 0.0840
22  8 76.4000 4597.0163 12063.6883 0.4998 1.5707 0.1311 0.0899
22  9 88.0000 5449.2401 14700.5332 0.4211 1.2273 0.1399 0.0997
23  1 76.0000 4613.9840 12242.7971 0.4959 1.5789 0.1306 0.0861
23  2 76.0000 4613.9840 12233.0367 0.4963 1.4211 0.1306 0.0861
23  3 76.0000 4613.9840 12196.2433 0.4978 1.4211 0.1306 0.0861
23  4 77.2000 4715.1003 12509.7215 0.4885 1.2435 0.1306 0.0862
23  5 79.6000 4827.0135 12786.5040 0.4744 1.5075 0.1309 0.0854
23  6 81.2000 5045.9106 13603.3702 0.4572 1.3300 0.1306 0.0857
23  7 79.2000 4826.0751 12900.7386 0.4731 1.3636 0.1300 0.0849
23  8 83.2000 4989.1241 13318.4753 0.4506 1.4423 0.1334 0.0914
23  9 84.4000 5121.9722 13674.3276 0.4454 1.4218 0.1378 0.1003
24  1 76.0000 4613.9840 12242.7971 0.4959 1.4211 0.1306 0.0861
24  2 76.0000 4613.9840 12242.7971 0.4959 1.4211 0.1306 0.0861
24  3 79.2000 4812.2030 12919.4206 0.4708 1.3636 0.1310 0.0906
24  4 85.6000 5236.5674 14028.6711 0.4371 1.4019 0.1423 0.1056
24  5 78.4000 4828.5100 12920.6886 0.4771 1.2245 0.1254 0.0782
24  6 79.6000 4790.8910 12633.2297 0.4771 1.5075 0.1311 0.0821
24  7 76.0000 4641.7606 12411.3693 0.4936 1.4211 0.1306 0.0861
24  8 82.4000 4991.9532 13362.5793 0.4537 1.4563 0.1317 0.0886
24  9 83.6000 5112.0668 13605.4007 0.4493 1.2919 0.1368 0.0957
25  1 76.0000 4613.9840 12242.7971 0.4959 1.5789 0.1306 0.0861
25  2 76.0000 4613.9840 12242.7971 0.4959 1.4211 0.1306 0.0861
25  3 77.6000 4717.9206 12593.3964 0.4840 1.3918 0.1307 0.0862
25  4 76.0000 4613.9840 12297.2210 0.4938 1.4211 0.1306 0.0851
25  5 86.0000 5171.0391 13928.4948 0.4318 1.3953 0.1415 0.1042
25  6 83.6000 5025.2429 13568.6096 0.4443 1.4354 0.1424 0.1089
25  7 78.4000 4822.9561 12875.8413 0.4788 1.3776 0.1316 0.0896
25  8 82.0000 5013.8766 13648.8153 0.4485 1.4634 0.1425 0.1027
26  1 76.0000 4613.9840 12242.7971 0.4959 1.4211 0.1306 0.0861
26  2 76.0000 4613.9840 12243.7379 0.4958 1.5789 0.1306 0.0861
26  3 79.2000 4820.1439 12774.2749 0.4761 1.3636 0.1306 0.0861
26  4 78.4000 4750.9456 12595.9599 0.4816 1.5306 0.1384 0.1001
26  5 83.2000 5109.8451 13883.2999 0.4434 1.1538 0.1471 0.1199
26  6 84.8000 5127.2094 13797.7897 0.4386 1.4151 0.1320 0.0887
26  7 85.6000 5171.5461 14077.1775 0.4297 1.2617 0.1415 0.1099
26  8 83.2000 5083.8141 13652.7179 0.4483 1.4423 0.1314 0.0869
27  1 76.0000 4613.9840 12242.7971 0.4959 1.4211 0.1306 0.0861
27  2 79.2000 4820.1439 12900.8064 0.4725 1.5152 0.1424 0.1099
27  3 82.4000 5014.2591 13590.5541 0.4490 0.8738 0.1306 0.0861
27  4 84.0000 5060.6725 13616.1508 0.4431 1.4286 0.1410 0.1081
27  5 78.8000 4736.0394 12584.6535 0.4800 1.5228 0.1283 0.0767
27  6 79.6000 4862.5380 13094.3205 0.4661 1.3568 0.1306 0.0888
27  7 76.8000 4665.0121 12308.7566 0.4952 1.4063 0.1316 0.0864
27  8 81.2000 5000.1720 13022.6552 0.4739 1.4778 0.1340 0.0956
28  1 76.0000 4613.9840 12242.7971 0.4959 1.4211 0.1306 0.0861
28  2 76.0000 4613.9840 12164.9109 0.4991 1.5789 0.1306 0.0861
28  3 82.8000 5071.1011 13701.4594 0.4474 1.3043 0.1424 0.1099
28  4 76.4000 4598.0010 12245.9216 0.4915 1.2565 0.1306 0.0848
28  5 82.4000 4979.4236 13320.5246 0.4551 1.4563 0.1283 0.0757
28  6 84.0000 5076.9201 13680.0794 0.4435 1.4286 0.1282 0.0757
28  7 82.4000 5025.8101 13154.2526 0.4642 1.4563 0.1421 0.1013
29  1 76.0000 4613.9840 12242.7971 0.4959 1.4211 0.1306 0.0861
29  2 76.0000 4613.9840 12244.6282 0.4958 1.4211 0.1308 0.0861
29  3 75.6000 4561.2058 12029.8603 0.5017 1.4286 0.1282 0.0765
29  4 81.6000 5005.5725 13390.9887 0.4585 1.4706 0.1425 0.1023
29  5 78.4000 4800.4919 12956.1874 0.4733 1.5306 0.1307 0.0896
29  6 79.2000 4677.4747 12408.7659 0.4767 1.3636 0.1371 0.0986
29  7 82.8000 5134.8445 13709.0498 0.4529 1.4493 0.1443 0.1111
30  1 76.0000 4613.9840 12242.7971 0.4959 1.5789 0.1306 0.0861
30  2 74.8000 4543.6339 11999.0148 0.5065 1.4439 0.1306 0.0861
30  3 79.6000 4857.9145 13027.2217 0.4691 1.3568 0.1306 0.0861
30  4 86.0000 5138.3305 13842.2836 0.4320 1.1163 0.1388 0.0994
30  5 78.4000 4682.2970 12580.1525 0.4749 1.5306 0.1312 0.0861
30  6 85.6000 5197.1323 14123.8030 0.4305 1.2617 0.1403 0.1107
30  7 74.4000 4516.6267 12088.1682 0.5027 1.6129 0.1292 0.0800
31  1 76.0000 4613.9840 12242.7971 0.4959 1.4211 0.1306 0.0861
31  2 82.4000 5014.2591 13518.6095 0.4510 1.4563 0.1306 0.0861
31  3 78.4000 4748.0670 12577.1815 0.4814 1.3776 0.1306 0.0861
31  4 78.8000 4761.4048 12729.4304 0.4756 1.3706 0.1306 0.0830
31  5 88.4000 5426.1950 14987.8610 0.4097 1.4932 0.1423 0.1101
31  6 82.8000 4974.0895 13209.7069 0.4557 1.3043 0.1360 0.0957
32  1 76.0000 4613.9840 12242.7971 0.4959 1.4211 0.1306 0.0861
32  2 80.4000 4875.1686 12976.2514 0.4680 1.4925 0.1424 0.1059
32  3 78.8000 4840.3844 12924.5115 0.4760 1.2183 0.1307 0.0868
32  4 84.8000 5145.3901 13866.4347 0.4381 1.4151 0.1416 0.1099
32  5 76.0000 4647.2576 12215.5107 0.5019 1.2632 0.1282 0.0727
32  6 81.6000 5056.8699 13730.7222 0.4514 1.4706 0.1311 0.0874
33  1 76.0000 4613.9840 12242.7971 0.4959 1.2632 0.1306 0.0861
33  2 77.2000 4679.0571 12523.2070 0.4843 1.5544 0.1306 0.0861
33  3 78.4000 4707.4857 12551.5184 0.4784 1.3776 0.1362 0.0954
33  4 78.8000 4788.2707 12761.6973 0.4768 1.3706 0.1306 0.0862
33  5 80.8000 4855.4945 12885.0639 0.4688 1.3366 0.1440 0.1152
33  6 82.0000 5036.6201 13518.4788 0.4556 1.4634 0.1337 0.0915
34  1 76.0000 4613.9840 12242.7971 0.4959 1.2632 0.1306 0.0861
34  2 78.8000 4788.2707 12830.1528 0.4743 1.3706 0.1306 0.0861
34  3 77.6000 4692.9232 12452.8612 0.4865 1.3918 0.1386 0.1017
34  4 80.0000 4887.4009 13162.2904 0.4644 1.5000 0.1340 0.0918
34  5 87.6000 5317.2098 14449.5052 0.4203 1.2329 0.1423 0.1088
34  6 79.6000 4700.2531 12575.9619 0.4699 1.5075 0.1371 0.0962
35  1 76.0000 4613.9840 12242.7971 0.4959 1.4211 0.1306 0.0861
35  2 76.0000 4613.9840 12216.0866 0.4970 1.4211 0.1306 0.0848
35  3 84.0000 5113.2654 13844.0046 0.4408 1.4286 0.1384 0.0994
35  4 80.0000 4853.9762 12866.2011 0.4718 1.2000 0.1306 0.0861
35  5 80.0000 4831.5988 12970.2023 0.4665 1.3500 0.1231 0.0776
35  6 81.2000 4933.3664 13261.2026 0.4583 1.3300 0.1309 0.0882
36  1 76.0000 4613.9840 12242.7971 0.4959 1.4211 0.1306 0.0861
36  2 76.8000 4713.6147 12569.9913 0.4883 1.4063 0.1333 0.0897
36  3 80.0000 4867.1486 13085.5375 0.4656 1.3500 0.1306 0.0856
36  4 77.6000 4684.5773 12436.1376 0.4857 1.3918 0.1309 0.0865
36  5 89.6000 5513.3699 15069.9765 0.4084 1.3393 0.1424 0.1063
36  6 72.4000 4526.9860 12140.3122 0.5162 1.4917 0.1433 0.1118
37  1 76.0000 4613.9840 12242.7971 0.4959 1.4211 0.1306 0.0861
37  2 79.6000 4889.4039 13235.6720 0.4660 1.5075 0.1306 0.0861
37  3 74.8000 4537.1781 11990.4744 0.5061 1.4439 0.1306 0.0861
37  4 83.2000 5064.0821 13538.3164 0.4506 1.4423 0.1423 0.1086
37  5 79.2000 4842.6732 12763.7479 0.4799 1.3636 0.1310 0.0840
38  1 76.0000 4613.9840 12242.7971 0.4959 1.2632 0.1306 0.0861
38  2 76.0000 4613.9840 12219.1919 0.4968 1.5789 0.1306 0.0861
38  3 80.4000 4888.0090 13246.3203 0.4600 1.3433 0.1338 0.0935
38  4 78.8000 4720.8236 12653.2100 0.4737 1.3706 0.1363 0.0968
38  5 83.6000 5115.7756 13755.9109 0.4458 1.0048 0.1329 0.0934
39  1 76.0000 4613.9840 12242.7971 0.4959 1.2632 0.1306 0.0861
39  2 82.4000 5021.7367 13433.0115 0.4541 1.4563 0.1423 0.1059
39  3 84.8000 5108.6349 13678.4744 0.4405 1.2736 0.1310 0.0893
39  4 82.0000 5065.9096 13689.3308 0.4521 1.4634 0.1446 0.1124
39  5 80.0000 4991.2815 13493.9675 0.4628 1.5000 0.1443 0.1149
40  1 76.0000 4613.9840 12242.7971 0.4959 1.4211 0.1306 0.0861
40  2 78.0000 4749.7937 12639.7904 0.4830 1.3846 0.1306 0.0861
40  3 85.2000 5149.4370 13784.6365 0.4387 1.4085 0.1361 0.0965
40  4 79.2000 4813.1203 12726.3466 0.4780 1.5152 0.1310 0.0819
40  5 83.6000 5056.9856 13744.8023 0.4409 1.0048 0.1306 0.0883
41  1 76.0000 4613.9840 12242.7971 0.4959 1.5789 0.1306 0.0861
41  2 78.4000 4745.6906 12643.8584 0.4800 1.3776 0.1306 0.0861
41  3 89.6000 5461.5953 14887.7488 0.4095 1.3393 0.1387 0.1040
41  4 81.6000 4918.4409 13030.8380 0.4628 1.3235 0.1306 0.0861
41  5 77.6000 4772.0159 12870.2182 0.4786 1.5464 0.1311 0.0846
42  1 76.0000 4613.9840 12242.7971 0.4959 1.4211 0.1306 0.0861
42  2 78.4000 4748.0670 12647.1296 0.4791 1.3776 0.1306 0.0861
42  3 80.0000 4841.9315 12844.9149 0.4711 1.5000 0.1307 0.0868
42  4 82.4000 5020.4321 13471.3276 0.4532 1.1650 0.1231 0.0768
42  5 83.6000 5029.6633 13496.7547 0.4460 1.4354 0.1307 0.0850
43  1 76.0000 4613.9840 12242.7971 0.4959 1.4211 0.1306 0.0861
43  2 78.8000 4788.2707 12791.6368 0.4755 1.3706 0.1306 0.0861
43  3 74.0000 4515.4429 11929.6573 0.5116 1.6216 0.1287 0.0847
43  4 82.0000 4991.8907 13328.6437 0.4571 1.3171 0.1335 0.0928
43  5 85.2000 5173.4125 13684.0830 0.4448 1.4085 0.1440 0.1042
44  1 76.0000 4613.9840 12242.7971 0.4959 1.4211 0.1306 0.0861
44  2 76.0000 4613.9840 12219.4864 0.4968 1.2632 0.1306 0.0861
44  3 81.6000 4913.6456 13163.0818 0.4580 1.4706 0.1424 0.1089
44  4 84.8000 5134.6065 14036.6613 0.4321 1.4151 0.1311 0.0886
45  1 76.0000 4613.9840 12242.7971 0.4959 1.4211 0.1306 0.0861
45  2 78.4000 4778.0831 12776.5092 0.4772 1.5306 0.1306 0.0861
45  3 78.4000 4811.2131 13083.4914 0.4699 1.2245 0.1254 0.0805
45  4 82.8000 5105.6297 13723.2917 0.4507 1.4493 0.1345 0.0859
46  1 76.0000 4613.9840 12242.7971 0.4959 1.4211 0.1306 0.0861
46  2 79.2000 4820.1439 12814.6321 0.4751 1.5152 0.1306 0.0861
46  3 79.2000 4820.1439 12809.3169 0.4753 1.3636 0.1306 0.0855
46  4 80.0000 4788.0419 12863.4533 0.4654 1.2000 0.1368 0.0996
47  1 76.0000 4613.9840 12242.7971 0.4959 1.4211 0.1306 0.0861
47  2 76.8000 4677.1372 12397.6116 0.4913 1.4063 0.1340 0.0927
47  3 77.6000 4678.2828 12414.3496 0.4858 1.3918 0.1306 0.0861
47  4 85.2000 5200.7141 14096.6346 0.4343 1.4085 0.1415 0.1084
48  1 76.0000 4613.9840 12242.7971 0.4959 1.4211 0.1306 0.0861
48  2 76.0000 4613.9840 12264.2689 0.4950 1.4211 0.1306 0.0861
48  3 77.6000 4717.9206 12484.5042 0.4877 1.5464 0.1283 0.0764
48  4 75.2000 4545.3300 12115.2067 0.4988 1.4362 0.1306 0.0870
49  1 76.0000 4613.9840 12242.7971 0.4959 1.2632 0.1306 0.0861
49  2 77.2000 4683.1609 12498.8534 0.4857 1.3990 0.1306 0.0861
49  3 80.8000 4882.2586 13071.9478 0.4628 1.4851 0.1306 0.0860
49  4 78.8000 4757.3010 12645.9805 0.4778 1.3706 0.1309 0.0842
50  1 76.0000 4613.9840 12242.7971 0.4959 1.4211 0.1306 0.0861
50  2 80.4000 4821.9732 12870.1986 0.4662 1.3433 0.1306 0.0857
50  3 77.2000 4739.8067 12503.0027 0.4926 1.3990 0.1306 0.0861
50  4 79.6000 4821.4371 12921.7607 0.4690 1.5075 0.1335 0.0936
51  1 76.0000 4613.9840 12242.7971 0.4959 1.2632 0.1306 0.0861
51  2 81.6000 4930.7499 13166.0512 0.4592 1.3235 0.1306 0.0867
51  3 86.8000 5253.8884 14287.7558 0.4240 1.2442 0.1415 0.1051
51  4 80.0000 4840.7396 12888.8935 0.4707 1.5000 0.1387 0.1007
52  1 76.0000 4613.9840 12242.7971 0.4959 1.2632 0.1306 0.0861
52  2 81.6000 4947.7362 13227.5701 0.4587 1.4706 0.1306 0.0861
52  3 78.0000 4715.4647 12503.4312 0.4838 1.3846 0.1362 0.0979
52  4 80.4000 4830.7175 12788.5069 0.4708 1.4925 0.1316 0.0904
53  1 76.0000 4613.9840 12242.7971 0.4959 1.2632 0.1306 0.0861
53  2 80.0000 4837.7158 12913.6277 0.4693 1.3500 0.1306 0.0861
53  3 80.4000 4866.9742 13172.3444 0.4605 1.4925 0.1386 0.1043
53  4 76.0000 4592.4236 12125.8664 0.4984 1.4211 0.1318 0.0917
54  1 76.0000 4613.9840 12242.7971 0.4959 1.5789 0.1306 0.0861
54  2 76.8000 4673.0334 12447.4788 0.4889 1.4063 0.1306 0.0861
54  3 76.8000 4641.0551 12269.5791 0.4925 1.4063 0.1306 0.0857
54  4 83.2000 5161.2034 13952.7905 0.4452 1.4423 0.1306 0.0855
55  1 76.0000 4613.9840 12242.7971 0.4959 1.4211 0.1306 0.0861
55  2 81.6000 4913.6456 13176.5785 0.4578 1.4706 0.1306 0.0861
55  3 83.2000 5107.6336 13627.7273 0.4509 1.2981 0.1333 0.0898
56  1 76.0000 4613.9840 12242.7971 0.4959 1.5789 0.1306 0.0861
56  2 76.0000 4613.9840 12224.5287 0.4966 1.4211 0.1306 0.0861
56  3 82.0000 4951.4162 13193.2451 0.4580 1.3171 0.1333 0.0888
57  1 76.0000 4613.9840 12242.7971 0.4959 1.4211 0.1306 0.0861
57  2 85.6000 5208.3743 14056.8398 0.4334 1.4019 0.1306 0.0861
57  3 84.8000 5078.6603 13584.0059 0.4412 1.4151 0.1306 0.0867
58  1 76.0000 4613.9840 12242.7971 0.4959 1.4211 0.1306 0.0861
58  2 78.4000 4707.4857 12539.4422 0.4790 1.3776 0.1306 0.0861
58  3 80.0000 4877.9008 13041.4239 0.4679 1.3500 0.1424 0.1074
59  1 76.0000 4613.9840 12242.7971 0.4959 1.5789 0.1306 0.0861
59  2 76.0000 4613.9840 12244.6282 0.4958 1.4211 0.1306 0.0861
59  3 81.2000 4934.7603 13147.5169 0.4629 1.4778 0.1306 0.0868
60  1 76.0000 4613.9840 12242.7971 0.4959 1.4211 0.1306 0.0861
60  2 82.4000 5026.3037 13432.4448 0.4544 1.3107 0.1306 0.0887
60  3 82.4000 5030.6783 13555.4075 0.4508 1.4563 0.1337 0.0963
61  1 76.0000 4613.9840 12242.7971 0.4959 1.4211 0.1306 0.0861
61  2 84.4000 5059.4237 13526.3316 0.4436 1.2796 0.1306 0.0861
61  3 83.2000 5041.7985 13386.0758 0.4532 1.0096 0.1308 0.0855
62  1 76.0000 4613.9840 12242.7971 0.4959 1.5789 0.1306 0.0861
62  2 79.2000 4850.1307 12855.1207 0.4767 1.5152 0.1306 0.0861
62  3 87.2000 5286.1652 14029.2438 0.4321 1.2385 0.1361 0.0965
63  1 76.0000 4613.9840 12242.7971 0.4959 1.5789 0.1306 0.0861
63  2 76.0000 4613.9840 12281.4711 0.4943 1.4211 0.1306 0.0861
63  3 77.2000 4682.5159 12486.8289 0.4861 1.3990 0.1306 0.0861
64  1 76.0000 4613.9840 12242.7971 0.4959 1.4211 0.1306 0.0861
64  2 76.8000 4631.5559 12234.9427 0.4929 1.4063 0.1306 0.0861
64  3 83.2000 5067.7586 13656.6045 0.4467 1.4423 0.1415 0.1045
65  1 76.0000 4613.9840 12242.7971 0.4959 1.4211 0.1306 0.0861
65  2 76.0000 4613.9840 12227.2997 0.4965 1.2632 0.1306 0.0861
65  3 86.8000 5268.6887 14364.2220 0.4231 1.3825 0.1417 0.1119
66  1 76.0000 4613.9840 12242.7971 0.4959 1.4211 0.1306 0.0861
66  2 78.8000 4758.1752 12625.5645 0.4784 1.5228 0.1306 0.0861
66  3 74.4000 4542.2479 12037.9697 0.5076 1.4516 0.1306 0.0857
67  1 76.0000 4613.9840 12242.7971 0.4959 1.2632 0.1306 0.0861
67  2 76.0000 4613.9840 12209.9464 0.4972 1.2632 0.1306 0.0851
67  3 77.6000 4733.1558 12413.7985 0.4931 1.5464 0.1442 0.1115
68  1 76.0000 4613.9840 12242.7971 0.4959 1.2632 0.1306 0.0861
68  2 76.0000 4613.9840 12196.2433 0.4978 1.2632 0.1306 0.0861
68  3 85.2000 5183.7511 13954.5855 0.4365 1.1268 0.1311 0.0874
69  1 76.0000 4613.9840 12242.7971 0.4959 1.4211 0.1306 0.0861
69  2 79.2000 4820.1439 12862.6457 0.4736 1.5152 0.1306 0.0861
69  3 78.4000 4800.5508 12668.8778 0.4840 1.3776 0.1358 0.0968
70  1 76.0000 4613.9840 12242.7971 0.4959 1.4211 0.1306 0.0861
70  2 78.4000 4707.4857 12539.4422 0.4790 1.3776 0.1306 0.0861
70  3 78.8000 4838.9864 13007.1326 0.4725 1.5228 0.1254 0.0787
71  1 76.0000 4613.9840 12242.7971 0.4959 1.4211 0.1306 0.0861
71  2 76.0000 4613.9840 12242.7971 0.4959 1.4211 0.1306 0.0861
71  3 88.0000 5370.7320 14718.1807 0.4147 1.3636 0.1422 0.1073
72  1 76.0000 4613.9840 12242.7971 0.4959 1.2632 0.1306 0.0861
72  2 76.0000 4613.9840 12235.4719 0.4962 1.4211 0.1306 0.0861
72  3 74.8000 4543.6339 12057.5347 0.5038 1.2834 0.1307 0.0857
73  1 76.0000 4613.9840 12242.7971 0.4959 1.4211 0.1306 0.0861
73  2 79.2000 4824.2477 12910.7727 0.4726 1.5152 0.1306 0.0861
74  1 76.0000 4613.9840 12242.7971 0.4959 1.2632 0.1306 0.0861
74  2 82.0000 4994.4306 13466.4193 0.4532 1.4634 0.1306 0.0861
75  1 76.0000 4613.9840 12242.7971 0.4959 1.4211 0.1306 0.0861
75  2 79.2000 4815.5769 12837.2794 0.4741 1.5152 0.1423 0.1079
76  1 76.0000 4613.9840 12242.7971 0.4959 1.4211 0.1306 0.0861
76  2 74.8000 4543.6339 12007.1594 0.5062 1.6043 0.1283 0.0757
77  1 76.0000 4613.9840 12242.7971 0.4959 1.4211 0.1306 0.0861
77  2 83.6000 5097.3985 13747.6899 0.4441 1.2919 0.1341 0.0932
78  1 76.0000 4613.9840 12242.7971 0.4959 1.5789 0.1306 0.0861
78  2 79.2000 4828.3515 12867.8357 0.4743 1.3636 0.1311 0.0863
79  1 76.0000 4613.9840 12242.7971 0.4959 1.5789 0.1306 0.0861
79  2 81.2000 5014.9966 13449.8599 0.4608 1.3300 0.1384 0.1016
80  1 76.0000 4613.9840 12242.7971 0.4959 1.5789 0.1306 0.0861
80  2 83.2000 5024.1194 13443.4160 0.4496 1.2981 0.1416 0.1068
81  1 76.0000 4613.9840 12242.7971 0.4959 1.5789 0.1306 0.0861
81  2 80.0000 4882.0718 13124.4923 0.4661 1.3500 0.1307 0.0873
82  1 76.0000 4613.9840 12242.7971 0.4959 1.5789 0.1306 0.0861
82  2 82.4000 5026.3037 13479.8189 0.4531 1.1650 0.1422 0.1068
83  1 76.0000 4613.9840 12242.7971 0.4959 1.5789 0.1306 0.0861
83  2 80.4000 4911.9789 13069.4266 0.4678 1.1940 0.1306 0.0861
84  1 76.0000 4613.9840 12242.7971 0.4959 1.4211 0.1306 0.0861
84  2 77.6000 4720.5299 12571.0372 0.4842 1.5464 0.1306 0.0861
85  1 76.0000 4613.9840 12242.7971 0.4959 1.4211 0.1306 0.0861
85  2 88.0000 5332.3824 14520.0800 0.4178 1.3636 0.1423 0.1088
86  1 76.0000 4613.9840 12242.7971 0.4959 1.5789 0.1306 0.0861
86  2 82.4000 5056.2906 13554.7420 0.4533 1.3107 0.1306 0.0861
87  1 76.0000 4613.9840 12242.7971 0.4959 1.4211 0.1306 0.0861
87  2 77.2000 4657.0504 12523.6525 0.4819 1.5544 0.1306 0.0861
88  1 76.0000 4613.9840 12242.7971 0.4959 1.4211 0.1306 0.0861
88  2 76.4000 4663.7993 12409.7314 0.4920 1.5707 0.1306 0.0862
89  1 76.0000 4613.9840 12242.7971 0.4959 1.1053 0.1306 0.0861
89  2 82.4000 5026.3037 13461.7568 0.4537 1.4563 0.1306 0.0861
90  1 76.0000 4613.9840 12242.7971 0.4959 1.4211 0.1306 0.0861
90  2 83.2000 5051.1612 13596.3811 0.4469 1.4423 0.1385 0.1017
91  1 76.0000 4613.9840 12242.7971 0.4959 1.5789 0.1306 0.0861
91  2 78.0000 4749.7937 12667.6843 0.4819 1.2308 0.1306 0.0861
92  1 76.0000 4613.9840 12242.7971 0.4959 1.5789 0.1306 0.0861
92  2 81.6000 5009.1997 13441.4703 0.4574 1.3235 0.1306 0.0861
93  1 76.0000 4613.9840 12242.7971 0.4959 1.5789 0.1306 0.0861
93  2 82.4000 4974.5520 13312.0616 0.4543 1.4563 0.1306 0.0861
94  1 76.0000 4613.9840 12242.7971 0.4959 1.4211 0.1306 0.0861
94  2 76.4000 4617.5836 12067.0114 0.5010 1.5707 0.1283 0.0763
95  1 76.0000 4613.9840 12242.7971 0.4959 1.2632 0.1306 0.0861
95  2 81.6000 5012.6607 13460.4647 0.4568 1.4706 0.1307 0.0862
96  1 76.0000 4613.9840 12242.7971 0.4959 1.2632 0.1306 0.0861
96  2 76.0000 4613.9840 12187.0002 0.4983 1.5789 0.1306 0.0861
97  1 76.0000 4613.9840 12242.7971 0.4959 1.4211 0.1306 0.0861
97  2 79.2000 4851.0187 12788.9087 0.4797 1.5152 0.1289 0.0809
98  1 76.0000 4613.9840 12242.7971 0.4959 1.4211 0.1306 0.0861
98  2 76.8000 4681.2410 12517.6029 0.4870 1.4063 0.1317 0.0882
99  1 76.0000 4613.9840 12242.7971 0.4959 1.5789 0.1306 0.0861
99  2 76.0000 4618.0878 12284.4383 0.4947 1.4211 0.1306 0.0861
100  1 76.0000 4613.9840 12242.7971 0.4959 1.5789 0.1306 0.0861
100  2 76.8000 4698.5487 12592.7016 0.4865 1.4063 0.1306 0.0861
101  1 76.0000 4613.9840 12242.7971 0.4959 1.5789 0.1306 0.0861
101  2 78.4000 4707.4857 12530.4449 0.4794 1.0714 0.1306 0.0861
102  1 76.0000 4613.9840 12242.7971 0.4959 1.5789 0.1306 0.0861
102  2 82.0000 5012.3727 13571.9089 0.4515 1.3171 0.1306 0.0850
103  1 76.0000 4613.9840 12242.7971 0.4959 1.5789 0.1306 0.0861
103  2 78.0000 4708.3514 12467.0840 0.4845 1.2308 0.1339 0.0867
104  1 76.0000 4613.9840 12242.7971 0.4959 1.4211 0.1306 0.0861
104  2 74.0000 4523.6730 12079.7902 0.5060 1.6216 0.1306 0.0861
105  1 76.0000 4613.9840 12242.7971 0.4959 1.2632 0.1306 0.0861
105  2 81.2000 4923.8562 13299.1614 0.4565 1.4778 0.1353 0.0968
106  1 76.0000 4613.9840 12242.7971 0.4959 1.4211 0.1306 0.0861
106  2 77.6000 4732.0828 12566.8792 0.4855 1.3918 0.1335 0.0929
107  1 76.0000 4613.9840 12242.7971 0.4959 1.5789 0.1306 0.0861
107  2 79.6000 4771.7520 12684.1224 0.4730 1.5075 0.1307 0.0851
108  1 76.0000 4613.9840 12242.7971 0.4959 1.4211 0.1306 0.0861
108  2 81.6000 4913.6456 13144.4886 0.4585 1.4706 0.1306 0.0861
109  1 76.0000 4613.9840 12242.7971 0.4959 1.2632 0.1306 0.0861
110  1 76.0000 4613.9840 12242.7971 0.4959 1.2632 0.1306 0.0861
111  1 76.0000 4613.9840 12242.7971 0.4959 1.4211 0.1306 0.0861
112  1 76.0000 4613.9840 12242.7971 0.4959 1.5789 0.1306 0.0861
113  1 76.0000 4613.9840 12242.7971 0.4959 1.4211 0.1306 0.0861
114  1 76.0000 4613.9840 12242.7971 0.4959 1.4211 0.1306 0.0861
115  1 76.0000 4613.9840 12242.7971 0.4959 1.5789 0.1306 0.0861
116  1 76.0000 4613.9840 12242.7971 0.4959 1.4211 0.1306 0.0861
117  1 76.0000 4613.9840 12242.7971 0.4959 1.5789 0.1306 0.0861
118  1 76.0000 4613.9840 12242.7971 0.4959 1.4211 0.1306 0.0861
119  1 76.0000 4613.9840 12242.7971 0.4959 1.4211 0.1306 0.0861
120  1 76.0000 4613.9840 12242.7971 0.4959 1.5789 0.1306 0.0861
121  1 76.0000 4613.9840 12242.7971 0.4959 1.4211 0.1306 0.0861
122  1 76.0000 4613.9840 12242.7971 0.4959 1.5789 0.1306 0.0861
123  1 76.0000 4613.9840 12242.7971 0.4959 1.4211 0.1306 0.0861
124  1 76.0000 4613.9840 12242.7971 0.4959 1.2632 0.1306 0.0861
125  1 76.0000 4613.9840 12242.7971 0.4959 1.5789 0.1306 0.0861
126  1 76.0000 4613.9840 12242.7971 0.4959 1.4211 0.1306 0.0861
127  1 76.0000 4613.9840 12242.7971 0.4959 1.4211 0.1306 0.0861
128  1 76.0000 4613.9840 12242.7971 0.4959 1.5789 0.1306 0.0861
129  1 76.0000 4613.9840 12242.7971 0.4959 1.4211 0.1306 0.0861
130  1 76.0000 4613.9840 12242.7971 0.4959 1.2632 0.1306 0.0861
131  1 76.0000 4613.9840 12242.7971 0.4959 1.4211 0.1306 0.0861
132  1 76.0000 4613.9840 12242.7971 0.4959 1.5789 0.1306 0.0861
133  1 76.0000 4613.9840 12242.7971 0.4959 1.7368 0.1306 0.0861
134  1 76.0000 4613.9840 12242.7971 0.4959 1.5789 0.1306 0.0861
135  1 76.0000 4613.9840 12242.7971 0.4959 1.2632 0.1306 0.0861
136  1 76.0000 4613.9840 12242.7971 0.4959 1.4211 0.1306 0.0861
137  1 76.0000 4613.9840 12242.7971 0.4959 1.4211 0.1306 0.0861
138  1 76.0000 4613.9840 12242.7971 0.4959 1.4211 0.1306 0.0861
139  1 76.0000 4613.9840 12242.7971 0.4959 1.4211 0.1306 0.0861
140  1 76.0000 4613.9840 12242.7971 0.4959 1.4211 0.1306 0.0861
141  1 76.0000 4613.9840 12242.7971 0.4959 1.4211 0.1306 0.0861
142  1 76.0000 4613.9840 12242.7971 0.4959 1.5789 0.1306 0.0861
143  1 76.0000 4613.9840 12242.7971 0.4959 1.4211 0.1306 0.0861
144  1 76.0000 4613.9840 12242.7971 0.4959 1.4211 0.1306 0.0861
145  1 76.0000 4613.9840 12242.7971 0.4959 1.4211 0.1306 0.0861
146  1 76.0000 4613.9840 12242.7971 0.4959 1.2632 0.1306 0.0861
147  1 76.0000 4613.9840 12242.7971 0.4959 1.5789 0.1306 0.0861
148  1 76.0000 4613.9840 12242.7971 0.4959 1.4211 0.1306 0.0861
149  1 76.0000 4613.9840 12242.7971 0.4959 1.4211 0.1306 0.0861
150  1 76.0000 4613.9840 12242.7971 0.4959 1.4211 0.1306 0.0861
151  1 76.0000 4613.9840 12242.7971 0.4959 1.5789 0.1306 0.0861
152  1 76.0000 4613.9840 12242.7971 0.4959 1.2632 0.1306 0.0861
153  1 76.0000 4613.9840 12242.7971 0.4959 1.8947 0.1306 0.0861
154  1 76.0000 4613.9840 12242.7971 0.4959 1.4211 0.1306 0.0861
155  1 76.0000 4613.9840 12242.7971 0.4959 1.4211 0.1306 0.0861
156  1 76.0000 4613.9840 12242.7971 0.4959 1.4211 0.1306 0.0861
157  1 76.0000 4613.9840 12242.7971 0.4959 1.5789 0.1306 0.0861
158  1 76.0000 4613.9840 12242.7971 0.4959 1.2632 0.1306 0.0861
159  1 76.0000 4613.9840 12242.7971 0.4959 1.2632 0.1306 0.0861
160  1 76.0000 4613.9840 12242.7971 0.4959 1.5789 0.1306 0.0861
161  1 76.0000 4613.9840 12242.7971 0.4959 1.4211 0.1306 0.0861
162  1 76.0000 4613.9840 12242.7971 0.4959 1.4211 0.1306 0.0861
163  1 76.0000 4613.9840 12242.7971 0.4959 1.5789 0.1306 0.0861
164  1 76.0000 4613.9840 12242.7971 0.4959 1.4211 0.1306 0.0861
165  1 76.0000 4613.9840 12242.7971 0.4959 1.4211 0.1306 0.0861
166  1 76.0000 4613.9840 12242.7971 0.4959 1.4211 0.1306 0.0861
167  1 76.0000 4613.9840 12242.7971 0.4959 1.4211 0.1306 0.0861
168  1 76.0000 4613.9840 12242.7971 0.4959 1.4211 0.1306 0.0861
169  1 76.0000 4613.9840 12242.7971 0.4959 1.5789 0.1306 0.0861
170  1 76.0000 4613.9840 12242.7971 0.4959 1.4211 0.1306 0.0861
171  1 76.0000 4613.9840 12242.7971 0.4959 1.2632 0.1306 0.0861
172  1 76.0000 4613.9840 12242.7971 0.4959 1.5789 0.1306 0.0861
173  1 76.0000 4613.9840 12242.7971 0.4959 1.4211 0.1306 0.0861
174  1 76.0000 4613.9840 12242.7971 0.4959 1.4211 0.1306 0.0861
175  1 76.0000 4613.9840 12242.7971 0.4959 1.5789 0.1306 0.0861
176  1 76.0000 4613.9840 12242.7971 0.4959 1.5789 0.1306 0.0861
177  1 76.0000 4613.9840 12242.7971 0.4959 1.5789 0.1306 0.0861
178  1 76.0000 4613.9840 12242.7971 0.4959 1.5789 0.1306 0.0861
179  1 76.0000 4613.9840 12242.7971 0.4959 1.2632 0.1306 0.0861
180  1 76.0000 4613.9840 12242.7971 0.4959 1.5789 0.1306 0.0861
181  1 76.0000 4613.9840 12242.7971 0.4959 1.4211 0.1306 0.0861
182  1 76.0000 4613.9840 12242.7971 0.4959 1.4211 0.1306 0.0861
183  1 76.0000 4613.9840 12242.7971 0.4959 1.5789 0.1306 0.0861
184  1 76.0000 4613.9840 12242.7971 0.4959 1.5789 0.1306 0.0861
185  1 76.0000 4613.9840 12242.7971 0.4959 1.4211 0.1306 0.0861
186  1 76.0000 4613.9840 12242.7971 0.4959 1.2632 0.1306 0.0861
187  1 76.0000 4613.9840 12242.7971 0.4959 1.5789 0.1306 0.0861
188  1 76.0000 4613.9840 12242.7971 0.4959 1.2632 0.1306 0.0861
189  1 76.0000 4613.9840 12242.7971 0.4959 1.5789 0.1306 0.0861
190  1 76.0000 4613.9840 12242.7971 0.4959 1.4211 0.1306 0.0861
191  1 76.0000 4613.9840 12242.7971 0.4959 1.4211 0.1306 0.0861
192  1 76.0000 4613.9840 12242.7971 0.4959 1.5789 0.1306 0.0861
193  1 76.0000 4613.9840 12242.7971 0.4959 1.4211 0.1306 0.0861
194  1 76.0000 4613.9840 12242.7971 0.4959 1.5789 0.1306 0.0861
195  1 76.0000 4613.9840 12242.7971 0.4959 1.4211 0.1306 0.0861
196  1 76.0000 4613.9840 12242.7971 0.4959 1.5789 0.1306 0.0861
197  1 76.0000 4613.9840 12242.7971 0.4959 1.5789 0.1306 0.0861
198  1 76.0000 4613.9840 12242.7971 0.4959 1.5789 0.1306 0.0861
199  1 76.0000 4613.9840 12242.7971 0.4959 1.5789 0.1306 0.0861
200  1 76.0000 4613.9840 12242.7971 0.4959 1.4211 0.1306 0.0861
201  1 76.0000 4613.9840 12242.7971 0.4959 1.5789 0.1306 0.0861
202  1 76.0000 4613.9840 12242.7971 0.4959 1.4211 0.1306 0.0861
203  1 76.0000 4613.9840 12242.7971 0.4959 1.5789 0.1306 0.0861
204  1 76.0000 4613.9840 12242.7971 0.4959 1.5789 0.1306 0.0861
205  1 76.0000 4613.9840 12242.7971 0.4959 1.5789 0.1306 0.0861
206  1 76.0000 4613.9840 12242.7971 0.4959 1.5789 0.1306 0.0861
207  1 76.0000 4613.9840 12242.7971 0.4959 1.2632 0.1306 0.0861
208  1 76.0000 4613.9840 12242.7971 0.4959 1.5789 0.1306 0.0861
209  1 76.0000 4613.9840 12242.7971 0.4959 1.5789 0.1306 0.0861
210  1 76.0000 4613.9840 12242.7971 0.4959 1.4211 0.1306 0.0861
211  1 76.0000 4613.9840 12242.7971 0.4959 1.5789 0.1306 0.0861
212  1 76.0000 4613.9840 12242.7971 0.4959 1.2632 0.1306 0.0861
213  1 76.0000 4613.9840 12242.7971 0.4959 1.5789 0.1306 0.0861
214  1 76.0000 4613.9840 12242.7971 0.4959 1.4211 0.1306 0.0861
215  1 76.0000 4613.9840 12242.7971 0.4959 1.5789 0.1306 0.0861
216  1 76.0000 4613.9840 12242.7971 0.4959 1.2632 0.1306 0.0861
