 0  0 70.0000 3856.4855 15045.8318 0.3662 4.4571 0.1385 0.1122
 1  0 71.6000 4023.2960 15589.4897 0.3608 4.8603 0.1385 0.1122
 1  7 69.2000 3877.4677 14881.7982 0.3766 5.0289 0.1385 0.1122
 1 14 70.8000 3845.3000 15011.1764 0.3625 4.9153 0.1385 0.1122
 1 21 70.0000 3826.3681 14797.4921 0.3696 4.8000 0.1384 0.1121
 1 28 70.4000 3865.7457 15077.3460 0.3642 4.7727 0.1385 0.1122
 1 35 70.0000 3856.4855 15045.8318 0.3662 4.9714 0.1385 0.1122
 1 42 69.2000 3841.7872 14848.4463 0.3741 4.6821 0.1385 0.1122
 1 49 72.8000 4012.0599 15472.0699 0.3561 4.7802 0.1385 0.1122
 1 56 70.0000 3856.4855 15045.8318 0.3662 4.9714 0.1385 0.1122
 1 63 70.0000 3836.3166 14914.4182 0.3675 4.6286 0.1385 0.1122
 1 70 70.0000 3856.4855 15045.8318 0.3662 4.8000 0.1385 0.1122
22  0 58.0000 3040.6788 10864.0671 0.4823 4.7586 0.1318 0.0844
22  7 71.6000 4180.7637 16561.3257 0.3529 5.3631 0.1370 0.1111
22 14 75.2000 4248.5794 16801.0197 0.3363 5.1064 0.1448 0.1261
22 21 68.8000 3936.5132 15337.3213 0.3742 5.4070 0.1467 0.1374
22 28 72.4000 4131.1808 15880.0118 0.3600 5.1381 0.1394 0.1030
22 35 70.0000 4122.7860 15888.2178 0.3718 5.3143 0.1377 0.1027
22 42 65.6000 3798.3169 14822.7050 0.3937 5.6707 0.1318 0.0898
22 49 70.8000 4092.9620 15997.2365 0.3615 5.2542 0.1370 0.1202
22 56 71.2000 4185.6934 16219.6903 0.3628 5.2247 0.1432 0.1186
22 63 69.6000 3826.8590 14668.3391 0.3751 5.0000 0.1374 0.1114
22 70 70.8000 3933.6473 15186.7804 0.3662 5.0847 0.1340 0.0974
43  0 41.6000 1845.8538 6593.7468 0.6753 3.7500 0.1059 0.0341
43  7 67.6000 3955.9219 15868.8251 0.3705 5.3254 0.1410 0.1208
43 14 72.4000 4203.8413 16599.5644 0.3516 5.3039 0.1420 0.1225
43 21 67.2000 3963.2839 15661.9033 0.3774 5.1786 0.1387 0.1247
43 28 69.6000 3927.0240 15228.5209 0.3737 5.1724 0.1216 0.0765
43 35 70.8000 4227.6169 16355.8651 0.3653 5.4237 0.1403 0.1130
43 42 74.4000 4226.8909 16464.5187 0.3455 5.1613 0.1417 0.1194
43 49 73.2000 4282.5941 16862.3027 0.3475 5.2459 0.1389 0.1147
43 56 71.6000 4159.9874 16043.0860 0.3626 5.1955 0.1420 0.1295
43 63 73.2000 4096.6409 15862.9075 0.3533 5.2459 0.1430 0.1239
43 70 67.6000 3852.1248 14774.1439 0.3875 5.5030 0.1299 0.0873
64  0 28.8000 1265.7656 4508.5285 0.9760 3.7500 0.1080 0.0427
64  7 67.2000 3983.1879 15709.8342 0.3798 5.5357 0.1459 0.1336
64 14 73.2000 4209.9403 16542.3510 0.3485 5.4098 0.1418 0.1170
64 21 70.4000 4035.5674 15671.1711 0.3676 5.2841 0.1335 0.0957
64 28 71.6000 4265.9931 17060.6620 0.3500 5.1955 0.1413 0.1344
64 35 73.2000 4197.3906 16175.2549 0.3548 5.2459 0.1444 0.1284
64 42 73.6000 4284.4177 16926.9504 0.3443 5.2174 0.1412 0.1181
64 49 73.6000 4204.1827 16505.7546 0.3482 5.0543 0.1478 0.1465
64 56 70.4000 4001.6036 15915.4841 0.3583 5.4545 0.1362 0.1089
64 63 71.2000 3980.1536 15355.4357 0.3649 5.2247 0.1365 0.1010
64 70 72.8000 4172.9349 16103.7300 0.3562 5.1099 0.1392 0.1072
85  0 18.8000 650.1927 2243.4241 1.5534 3.1915 0.0958 0.0206
85  7 74.4000 4217.5691 16846.5348 0.3375 5.1613 0.1431 0.1358
85 14 73.6000 4268.7752 16636.8395 0.3492 4.8913 0.1402 0.1175
85 21 72.4000 4226.1448 16451.1098 0.3547 4.9724 0.1421 0.1183
85 28 73.2000 4231.2977 16350.7144 0.3545 5.4098 0.1458 0.1252
85 35 72.8000 4248.0106 16924.9626 0.3446 5.1099 0.1467 0.1298
85 42 69.2000 3794.0457 14595.1996 0.3766 5.2023 0.1414 0.1187
85 49 71.2000 4165.0807 16525.0851 0.3541 5.3933 0.1436 0.1331
85 56 70.4000 3977.6438 15406.0708 0.3669 5.4545 0.1344 0.0986
85 63 69.2000 3935.1068 15511.4592 0.3673 5.0289 0.1391 0.1130
85 70 73.6000 4182.9253 16036.9967 0.3543 5.0543 0.1440 0.1174
106  0 11.6000 411.5006 1527.1968 2.3136 4.1379 0.0873 0.0071
106  7 76.8000 4397.7726 17223.0600 0.3333 5.1563 0.1428 0.1293
106 14 73.6000 4325.3862 16815.8426 0.3499 5.2174 0.1434 0.1256
106 21 72.0000 4063.5579 15710.8243 0.3596 5.1667 0.1420 0.1192
106 28 74.8000 4214.5702 16434.4845 0.3434 5.1337 0.1447 0.1291
106 35 72.8000 4133.1491 16380.8029 0.3469 5.1099 0.1385 0.1245
106 42 69.6000 3904.9692 14867.2808 0.3777 5.3448 0.1415 0.1222
106 49 72.4000 4134.5728 16127.0912 0.3560 5.1381 0.1374 0.1024
106 56 69.2000 3874.6369 14650.9815 0.3828 5.0289 0.1352 0.0990
106 63 73.6000 4139.1609 16255.3655 0.3463 5.2174 0.1477 0.1382
106 70 70.4000 4076.2216 15920.7459 0.3640 5.2841 0.1428 0.1210
127  0 4.8000 186.9479 645.2871 6.0378 5.0000 0.0877 0.0046
127  7 75.6000 4296.2858 16882.9850 0.3367 4.9206 0.1447 0.1254
127 14 74.8000 4317.7178 17097.6835 0.3380 5.1337 0.1440 0.1371
127 21 71.6000 4020.3757 15749.2596 0.3568 5.0279 0.1409 0.1229
127 28 72.8000 4261.6158 16765.2484 0.3498 5.2747 0.1437 0.1374
127 35 66.0000 3759.3729 14411.4826 0.3967 5.2727 0.1391 0.1227
127 42 73.6000 4201.6192 16594.2906 0.3456 5.2174 0.1482 0.1491
127 49 73.2000 4193.2663 16582.5802 0.3456 5.0820 0.1433 0.1161
127 56 70.8000 4148.8934 16292.1659 0.3598 5.2542 0.1431 0.1270
127 63 67.6000 4037.3312 15732.8648 0.3797 5.6805 0.1383 0.1079
127 70 72.8000 4185.8794 16429.6461 0.3506 4.9451 0.1430 0.1286
148  0 3.6000 97.0850 397.2358 6.7089 3.3333 0.0869 0.0038
148  7 76.8000 4436.6837 18010.6559 0.3208 5.1563 0.1452 0.1320
148 14 76.8000 4276.9616 16646.7495 0.3346 4.8438 0.1410 0.1264
148 21 72.8000 4167.8774 16450.8317 0.3483 5.1099 0.1349 0.1077
148 28 69.2000 3867.6212 14872.0307 0.3782 5.2023 0.1387 0.1002
148 35 74.4000 4285.4243 16945.1687 0.3401 5.1613 0.1459 0.1327
148 42 74.4000 4197.4089 16142.0403 0.3506 5.0000 0.1445 0.1312
148 49 72.8000 4223.1661 16703.5297 0.3473 4.7802 0.1449 0.1256
148 56 72.4000 4328.7017 16846.4497 0.3551 5.3039 0.1404 0.1150
148 63 68.4000 3881.9461 14923.4627 0.3807 4.9123 0.1367 0.1038
148 70 72.8000 4239.7999 16693.1175 0.3496 5.1099 0.1409 0.1177
169  0 2.8000 64.6993 225.6127 0.0000 4.5714 0.0839 0.0000
169  7 76.4000 4363.4273 17646.2209 0.3242 4.7120 0.1425 0.1331
169 14 74.4000 4216.0861 16724.4836 0.3391 4.6774 0.1392 0.1130
169 21 75.6000 4342.3504 16621.3467 0.3462 4.9206 0.1464 0.1395
169 28 74.4000 4195.8424 16847.8110 0.3364 4.8387 0.1451 0.1315
169 35 71.6000 4134.1066 16226.8080 0.3561 5.0279 0.1427 0.1288
169 42 71.2000 4147.5969 16366.5714 0.3566 5.0562 0.1402 0.1212
169 49 71.2000 4185.0182 16585.8087 0.3542 5.2247 0.1441 0.1320
169 56 70.4000 4022.2614 15550.1639 0.3683 4.9432 0.1403 0.1191
169 63 74.0000 4171.9280 16456.3026 0.3437 5.0270 0.1453 0.1403
169 70 67.6000 3668.0724 14248.5374 0.3819 4.9704 0.1376 0.1177
190  0 1.2000 45.6355 200.7869 0.0000 5.0000 0.0839 0.0000
190  7 78.0000 4480.4897 17919.9656 0.3208 4.7692 0.1418 0.1378
190 14 74.8000 4454.2017 18185.2182 0.3277 5.1337 0.1448 0.1385
190 21 74.0000 4299.8178 16958.7502 0.3429 4.8649 0.1426 0.1222
190 28 72.4000 4225.1350 16736.3458 0.3489 4.8066 0.1447 0.1247
190 35 73.6000 4228.0377 16676.1098 0.3449 5.0543 0.1427 0.1362
190 42 69.2000 3914.4522 15002.2210 0.3790 5.2023 0.1410 0.1305
190 49 71.2000 4042.2601 15448.6044 0.3680 5.0562 0.1439 0.1264
190 56 72.0000 4207.3570 16626.3621 0.3521 5.1667 0.1438 0.1215
190 63 69.6000 4188.8235 16634.0228 0.3627 5.1724 0.1378 0.1093
190 70 70.4000 4041.2357 15657.5880 0.3671 5.1136 0.1395 0.1112
211  0 0.0000 0.0000 0.0000 0.0000 0.0000 0.0839 0.0000
211  7 78.4000 4530.8967 18204.3667 0.3176 4.5918 0.1417 0.1260
211 14 77.2000 4582.8592 18077.2943 0.3286 4.9741 0.1446 0.1343
211 21 74.4000 4311.8348 17588.2736 0.3305 4.6774 0.1384 0.1213
211 28 70.8000 4008.5055 15669.0294 0.3616 5.0847 0.1432 0.1247
211 35 74.8000 4391.1079 17285.7487 0.3399 5.2941 0.1477 0.1322
211 42 72.4000 4011.5954 15298.8417 0.3628 5.1381 0.1437 0.1264
211 49 71.6000 4116.6471 16118.1787 0.3579 4.8603 0.1397 0.1142
211 56 73.2000 4160.4120 16496.1387 0.3450 4.7541 0.1454 0.1347
211 63 73.2000 4126.9633 15949.0649 0.3550 5.0820 0.1450 0.1360
211 70 70.8000 4126.0283 16095.2412 0.3625 5.2542 0.1457 0.1345
217  0 0.0000 0.0000 0.0000 0.0000 0.0000 0.0839 0.0000
217  7 75.6000 4505.9425 18463.1228 0.3229 4.9206 0.1435 0.1478
217 14 77.2000 4501.2385 18054.9326 0.3237 4.8187 0.1448 0.1360
217 21 76.4000 4373.9518 17986.5941 0.3186 4.7120 0.1466 0.1357
217 28 70.8000 3975.4990 15615.5817 0.3603 4.7458 0.1441 0.1351
217 35 74.0000 4262.8852 16800.8941 0.3431 5.0270 0.1465 0.1358
217 42 68.4000 3900.8766 15472.0124 0.3691 4.9123 0.1394 0.1193
217 49 71.6000 4116.4374 15971.3145 0.3604 5.0279 0.1379 0.1224
217 56 73.6000 4287.2623 16711.7531 0.3489 4.8913 0.1408 0.1268
217 63 75.2000 4242.0621 16655.0378 0.3390 4.9468 0.1414 0.1220
217 70 74.8000 4159.6435 16344.3052 0.3403 4.9733 0.1405 0.1204
 1 75 70.0000 3856.4855 15045.8318 0.3662 4.8000 0.1385 0.1122
22 75 70.0000 3856.4855 15045.8318 0.3662 4.9714 0.1385 0.1122
43 75 70.0000 3856.4855 15045.8318 0.3662 4.9714 0.1385 0.1122
64 75 70.0000 3856.4855 15045.8318 0.3662 4.8000 0.1385 0.1122
85 75 70.0000 3856.4855 15045.8318 0.3662 4.8000 0.1385 0.1122
106 75 70.0000 3856.4855 15045.8318 0.3662 4.9714 0.1385 0.1122
127 75 70.0000 3856.4855 15045.8318 0.3662 4.9714 0.1385 0.1122
148 75 70.0000 3856.4855 15045.8318 0.3662 4.6286 0.1385 0.1122
169 75 70.0000 3856.4855 15045.8318 0.3662 4.9714 0.1385 0.1122
190 75 70.0000 3856.4855 15045.8318 0.3662 4.9714 0.1385 0.1122
211 75 70.0000 3856.4855 15045.8318 0.3662 4.9714 0.1385 0.1122
217  1 61.2000 2941.2481 10452.0078 0.4603 3.7255 0.1234 0.0824
217  2 75.6000 4319.7129 17337.3546 0.3304 4.6032 0.1323 0.1138
217  3 76.4000 4317.3040 17361.6174 0.3257 4.5550 0.1356 0.1337
217  4 77.6000 4422.7038 17788.9080 0.3212 4.6392 0.1382 0.1305
217  5 76.4000 4402.2288 17531.9401 0.3290 5.0262 0.1410 0.1317
217  6 75.2000 4379.6600 17718.0051 0.3292 4.9468 0.1419 0.1216
